%TF.GenerationSoftware,KiCad,Pcbnew,7.0.1*%
%TF.CreationDate,2024-06-02T19:33:41-05:00*%
%TF.ProjectId,TAPLFO,5441504c-464f-42e6-9b69-6361645f7063,v1.0*%
%TF.SameCoordinates,Original*%
%TF.FileFunction,Drillmap*%
%TF.FilePolarity,Positive*%
%FSLAX45Y45*%
G04 Gerber Fmt 4.5, Leading zero omitted, Abs format (unit mm)*
G04 Created by KiCad (PCBNEW 7.0.1) date 2024-06-02 19:33:41*
%MOMM*%
%LPD*%
G01*
G04 APERTURE LIST*
%ADD10C,0.100000*%
%ADD11C,0.200000*%
%ADD12C,0.320000*%
%ADD13C,0.500000*%
%ADD14C,0.700000*%
%ADD15C,1.000000*%
%ADD16C,1.620000*%
G04 APERTURE END LIST*
D10*
X-25000000Y20000000D02*
X-15000000Y20000000D01*
X-15000000Y0D01*
X-25000000Y0D01*
X-25000000Y20000000D01*
D11*
D12*
X-24710000Y19860000D02*
X-24390000Y19540000D01*
X-24390000Y19860000D02*
X-24710000Y19540000D01*
D11*
X-24700000Y19540000D02*
X-24400000Y19540000D01*
X-24400000Y19540000D02*
G75*
G03*
X-24400000Y19860000I0J160000D01*
G01*
X-24400000Y19860000D02*
X-24700000Y19860000D01*
X-24700000Y19860000D02*
G75*
G03*
X-24700000Y19540000I0J-160000D01*
G01*
D12*
X-24710000Y460000D02*
X-24390000Y140000D01*
X-24390000Y460000D02*
X-24710000Y140000D01*
D11*
X-24700000Y140000D02*
X-24400000Y140000D01*
X-24400000Y140000D02*
G75*
G03*
X-24400000Y460000I0J160000D01*
G01*
X-24400000Y460000D02*
X-24700000Y460000D01*
X-24700000Y460000D02*
G75*
G03*
X-24700000Y140000I0J-160000D01*
G01*
D12*
X-15610000Y19860000D02*
X-15290000Y19540000D01*
X-15290000Y19860000D02*
X-15610000Y19540000D01*
D11*
X-15600000Y19540000D02*
X-15300000Y19540000D01*
X-15300000Y19540000D02*
G75*
G03*
X-15300000Y19860000I0J160000D01*
G01*
X-15300000Y19860000D02*
X-15600000Y19860000D01*
X-15600000Y19860000D02*
G75*
G03*
X-15600000Y19540000I0J-160000D01*
G01*
D12*
X-15610000Y460000D02*
X-15290000Y140000D01*
X-15290000Y460000D02*
X-15610000Y140000D01*
D11*
X-15600000Y140000D02*
X-15300000Y140000D01*
X-15300000Y140000D02*
G75*
G03*
X-15300000Y460000I0J160000D01*
G01*
X-15300000Y460000D02*
X-15600000Y460000D01*
X-15600000Y460000D02*
G75*
G03*
X-15600000Y140000I0J-160000D01*
G01*
D13*
X-18750000Y10700000D02*
G75*
G03*
X-18750000Y10700000I-250000J0D01*
G01*
X-17000000Y14000000D02*
G75*
G03*
X-17000000Y14000000I-250000J0D01*
G01*
D14*
X-22750000Y12350000D02*
X-22750000Y11650000D01*
X-23100000Y12000000D02*
X-22400000Y12000000D01*
X-22750000Y8350000D02*
X-22750000Y7650000D01*
X-23100000Y8000000D02*
X-22400000Y8000000D01*
X-20000000Y8350000D02*
X-20000000Y7650000D01*
X-20350000Y8000000D02*
X-19650000Y8000000D01*
X-17250000Y12350000D02*
X-17250000Y11650000D01*
X-17600000Y12000000D02*
X-16900000Y12000000D01*
X-17250000Y8350000D02*
X-17250000Y7650000D01*
X-17600000Y8000000D02*
X-16900000Y8000000D01*
D15*
X-23646443Y4646443D02*
X-23646443Y5353557D01*
X-24353557Y5353557D01*
X-24353557Y4646443D01*
X-23646443Y4646443D01*
X-23646443Y2146443D02*
X-23646443Y2853557D01*
X-24353557Y2853557D01*
X-24353557Y2146443D01*
X-23646443Y2146443D01*
X-21646443Y4646443D02*
X-21646443Y5353557D01*
X-22353557Y5353557D01*
X-22353557Y4646443D01*
X-21646443Y4646443D01*
X-21646443Y2146443D02*
X-21646443Y2853557D01*
X-22353557Y2853557D01*
X-22353557Y2146443D01*
X-21646443Y2146443D01*
X-19646443Y15296443D02*
X-19646443Y16003557D01*
X-20353557Y16003557D01*
X-20353557Y15296443D01*
X-19646443Y15296443D01*
X-19646443Y4646443D02*
X-19646443Y5353557D01*
X-20353557Y5353557D01*
X-20353557Y4646443D01*
X-19646443Y4646443D01*
X-19646443Y2146443D02*
X-19646443Y2853557D01*
X-20353557Y2853557D01*
X-20353557Y2146443D01*
X-19646443Y2146443D01*
X-17646443Y4646443D02*
X-17646443Y5353557D01*
X-18353557Y5353557D01*
X-18353557Y4646443D01*
X-17646443Y4646443D01*
X-17646443Y2146443D02*
X-17646443Y2853557D01*
X-18353557Y2853557D01*
X-18353557Y2146443D01*
X-17646443Y2146443D01*
X-15646443Y4646443D02*
X-15646443Y5353557D01*
X-16353557Y5353557D01*
X-16353557Y4646443D01*
X-15646443Y4646443D01*
X-15646443Y2146443D02*
X-15646443Y2853557D01*
X-16353557Y2853557D01*
X-16353557Y2146443D01*
X-15646443Y2146443D01*
D16*
X-20000000Y11190000D02*
X-19190000Y12000000D01*
X-20000000Y12810000D01*
X-20810000Y12000000D01*
X-20000000Y11190000D01*
D11*
X-24757381Y-317524D02*
X-24757381Y-117524D01*
X-24757381Y-117524D02*
X-24709762Y-117524D01*
X-24709762Y-117524D02*
X-24681190Y-127048D01*
X-24681190Y-127048D02*
X-24662143Y-146095D01*
X-24662143Y-146095D02*
X-24652619Y-165143D01*
X-24652619Y-165143D02*
X-24643095Y-203238D01*
X-24643095Y-203238D02*
X-24643095Y-231809D01*
X-24643095Y-231809D02*
X-24652619Y-269905D01*
X-24652619Y-269905D02*
X-24662143Y-288952D01*
X-24662143Y-288952D02*
X-24681190Y-308000D01*
X-24681190Y-308000D02*
X-24709762Y-317524D01*
X-24709762Y-317524D02*
X-24757381Y-317524D01*
X-24557381Y-317524D02*
X-24557381Y-184190D01*
X-24557381Y-222286D02*
X-24547857Y-203238D01*
X-24547857Y-203238D02*
X-24538333Y-193714D01*
X-24538333Y-193714D02*
X-24519286Y-184190D01*
X-24519286Y-184190D02*
X-24500238Y-184190D01*
X-24433571Y-317524D02*
X-24433571Y-184190D01*
X-24433571Y-117524D02*
X-24443095Y-127048D01*
X-24443095Y-127048D02*
X-24433571Y-136571D01*
X-24433571Y-136571D02*
X-24424048Y-127048D01*
X-24424048Y-127048D02*
X-24433571Y-117524D01*
X-24433571Y-117524D02*
X-24433571Y-136571D01*
X-24309762Y-317524D02*
X-24328809Y-308000D01*
X-24328809Y-308000D02*
X-24338333Y-288952D01*
X-24338333Y-288952D02*
X-24338333Y-117524D01*
X-24205000Y-317524D02*
X-24224048Y-308000D01*
X-24224048Y-308000D02*
X-24233571Y-288952D01*
X-24233571Y-288952D02*
X-24233571Y-117524D01*
X-23976428Y-317524D02*
X-23976428Y-117524D01*
X-23976428Y-117524D02*
X-23909762Y-260381D01*
X-23909762Y-260381D02*
X-23843095Y-117524D01*
X-23843095Y-117524D02*
X-23843095Y-317524D01*
X-23662143Y-317524D02*
X-23662143Y-212762D01*
X-23662143Y-212762D02*
X-23671667Y-193714D01*
X-23671667Y-193714D02*
X-23690714Y-184190D01*
X-23690714Y-184190D02*
X-23728809Y-184190D01*
X-23728809Y-184190D02*
X-23747857Y-193714D01*
X-23662143Y-308000D02*
X-23681190Y-317524D01*
X-23681190Y-317524D02*
X-23728809Y-317524D01*
X-23728809Y-317524D02*
X-23747857Y-308000D01*
X-23747857Y-308000D02*
X-23757381Y-288952D01*
X-23757381Y-288952D02*
X-23757381Y-269905D01*
X-23757381Y-269905D02*
X-23747857Y-250857D01*
X-23747857Y-250857D02*
X-23728809Y-241333D01*
X-23728809Y-241333D02*
X-23681190Y-241333D01*
X-23681190Y-241333D02*
X-23662143Y-231809D01*
X-23566905Y-184190D02*
X-23566905Y-384190D01*
X-23566905Y-193714D02*
X-23547857Y-184190D01*
X-23547857Y-184190D02*
X-23509762Y-184190D01*
X-23509762Y-184190D02*
X-23490714Y-193714D01*
X-23490714Y-193714D02*
X-23481190Y-203238D01*
X-23481190Y-203238D02*
X-23471667Y-222286D01*
X-23471667Y-222286D02*
X-23471667Y-279429D01*
X-23471667Y-279429D02*
X-23481190Y-298476D01*
X-23481190Y-298476D02*
X-23490714Y-308000D01*
X-23490714Y-308000D02*
X-23509762Y-317524D01*
X-23509762Y-317524D02*
X-23547857Y-317524D01*
X-23547857Y-317524D02*
X-23566905Y-308000D01*
X-23385952Y-298476D02*
X-23376428Y-308000D01*
X-23376428Y-308000D02*
X-23385952Y-317524D01*
X-23385952Y-317524D02*
X-23395476Y-308000D01*
X-23395476Y-308000D02*
X-23385952Y-298476D01*
X-23385952Y-298476D02*
X-23385952Y-317524D01*
X-23385952Y-193714D02*
X-23376428Y-203238D01*
X-23376428Y-203238D02*
X-23385952Y-212762D01*
X-23385952Y-212762D02*
X-23395476Y-203238D01*
X-23395476Y-203238D02*
X-23385952Y-193714D01*
X-23385952Y-193714D02*
X-23385952Y-212762D01*
X-25205000Y-545000D02*
X-25005000Y-745000D01*
X-25005000Y-545000D02*
X-25205000Y-745000D01*
X-24776428Y-537524D02*
X-24652619Y-537524D01*
X-24652619Y-537524D02*
X-24719286Y-613714D01*
X-24719286Y-613714D02*
X-24690714Y-613714D01*
X-24690714Y-613714D02*
X-24671667Y-623238D01*
X-24671667Y-623238D02*
X-24662143Y-632762D01*
X-24662143Y-632762D02*
X-24652619Y-651810D01*
X-24652619Y-651810D02*
X-24652619Y-699428D01*
X-24652619Y-699428D02*
X-24662143Y-718476D01*
X-24662143Y-718476D02*
X-24671667Y-728000D01*
X-24671667Y-728000D02*
X-24690714Y-737524D01*
X-24690714Y-737524D02*
X-24747857Y-737524D01*
X-24747857Y-737524D02*
X-24766905Y-728000D01*
X-24766905Y-728000D02*
X-24776428Y-718476D01*
X-24566905Y-718476D02*
X-24557381Y-728000D01*
X-24557381Y-728000D02*
X-24566905Y-737524D01*
X-24566905Y-737524D02*
X-24576428Y-728000D01*
X-24576428Y-728000D02*
X-24566905Y-718476D01*
X-24566905Y-718476D02*
X-24566905Y-737524D01*
X-24481190Y-556571D02*
X-24471667Y-547048D01*
X-24471667Y-547048D02*
X-24452619Y-537524D01*
X-24452619Y-537524D02*
X-24405000Y-537524D01*
X-24405000Y-537524D02*
X-24385952Y-547048D01*
X-24385952Y-547048D02*
X-24376428Y-556571D01*
X-24376428Y-556571D02*
X-24366905Y-575619D01*
X-24366905Y-575619D02*
X-24366905Y-594667D01*
X-24366905Y-594667D02*
X-24376428Y-623238D01*
X-24376428Y-623238D02*
X-24490714Y-737524D01*
X-24490714Y-737524D02*
X-24366905Y-737524D01*
X-24243095Y-537524D02*
X-24224047Y-537524D01*
X-24224047Y-537524D02*
X-24205000Y-547048D01*
X-24205000Y-547048D02*
X-24195476Y-556571D01*
X-24195476Y-556571D02*
X-24185952Y-575619D01*
X-24185952Y-575619D02*
X-24176428Y-613714D01*
X-24176428Y-613714D02*
X-24176428Y-661333D01*
X-24176428Y-661333D02*
X-24185952Y-699428D01*
X-24185952Y-699428D02*
X-24195476Y-718476D01*
X-24195476Y-718476D02*
X-24205000Y-728000D01*
X-24205000Y-728000D02*
X-24224047Y-737524D01*
X-24224047Y-737524D02*
X-24243095Y-737524D01*
X-24243095Y-737524D02*
X-24262143Y-728000D01*
X-24262143Y-728000D02*
X-24271667Y-718476D01*
X-24271667Y-718476D02*
X-24281190Y-699428D01*
X-24281190Y-699428D02*
X-24290714Y-661333D01*
X-24290714Y-661333D02*
X-24290714Y-613714D01*
X-24290714Y-613714D02*
X-24281190Y-575619D01*
X-24281190Y-575619D02*
X-24271667Y-556571D01*
X-24271667Y-556571D02*
X-24262143Y-547048D01*
X-24262143Y-547048D02*
X-24243095Y-537524D01*
X-24052619Y-537524D02*
X-24033571Y-537524D01*
X-24033571Y-537524D02*
X-24014524Y-547048D01*
X-24014524Y-547048D02*
X-24005000Y-556571D01*
X-24005000Y-556571D02*
X-23995476Y-575619D01*
X-23995476Y-575619D02*
X-23985952Y-613714D01*
X-23985952Y-613714D02*
X-23985952Y-661333D01*
X-23985952Y-661333D02*
X-23995476Y-699428D01*
X-23995476Y-699428D02*
X-24005000Y-718476D01*
X-24005000Y-718476D02*
X-24014524Y-728000D01*
X-24014524Y-728000D02*
X-24033571Y-737524D01*
X-24033571Y-737524D02*
X-24052619Y-737524D01*
X-24052619Y-737524D02*
X-24071667Y-728000D01*
X-24071667Y-728000D02*
X-24081190Y-718476D01*
X-24081190Y-718476D02*
X-24090714Y-699428D01*
X-24090714Y-699428D02*
X-24100238Y-661333D01*
X-24100238Y-661333D02*
X-24100238Y-613714D01*
X-24100238Y-613714D02*
X-24090714Y-575619D01*
X-24090714Y-575619D02*
X-24081190Y-556571D01*
X-24081190Y-556571D02*
X-24071667Y-547048D01*
X-24071667Y-547048D02*
X-24052619Y-537524D01*
X-23900238Y-737524D02*
X-23900238Y-604190D01*
X-23900238Y-623238D02*
X-23890714Y-613714D01*
X-23890714Y-613714D02*
X-23871667Y-604190D01*
X-23871667Y-604190D02*
X-23843095Y-604190D01*
X-23843095Y-604190D02*
X-23824047Y-613714D01*
X-23824047Y-613714D02*
X-23814524Y-632762D01*
X-23814524Y-632762D02*
X-23814524Y-737524D01*
X-23814524Y-632762D02*
X-23805000Y-613714D01*
X-23805000Y-613714D02*
X-23785952Y-604190D01*
X-23785952Y-604190D02*
X-23757381Y-604190D01*
X-23757381Y-604190D02*
X-23738333Y-613714D01*
X-23738333Y-613714D02*
X-23728809Y-632762D01*
X-23728809Y-632762D02*
X-23728809Y-737524D01*
X-23633571Y-737524D02*
X-23633571Y-604190D01*
X-23633571Y-623238D02*
X-23624047Y-613714D01*
X-23624047Y-613714D02*
X-23605000Y-604190D01*
X-23605000Y-604190D02*
X-23576428Y-604190D01*
X-23576428Y-604190D02*
X-23557381Y-613714D01*
X-23557381Y-613714D02*
X-23547857Y-632762D01*
X-23547857Y-632762D02*
X-23547857Y-737524D01*
X-23547857Y-632762D02*
X-23538333Y-613714D01*
X-23538333Y-613714D02*
X-23519286Y-604190D01*
X-23519286Y-604190D02*
X-23490714Y-604190D01*
X-23490714Y-604190D02*
X-23471666Y-613714D01*
X-23471666Y-613714D02*
X-23462143Y-632762D01*
X-23462143Y-632762D02*
X-23462143Y-737524D01*
X-23071666Y-528000D02*
X-23243095Y-785143D01*
X-22814524Y-537524D02*
X-22795476Y-537524D01*
X-22795476Y-537524D02*
X-22776428Y-547048D01*
X-22776428Y-547048D02*
X-22766904Y-556571D01*
X-22766904Y-556571D02*
X-22757381Y-575619D01*
X-22757381Y-575619D02*
X-22747857Y-613714D01*
X-22747857Y-613714D02*
X-22747857Y-661333D01*
X-22747857Y-661333D02*
X-22757381Y-699428D01*
X-22757381Y-699428D02*
X-22766904Y-718476D01*
X-22766904Y-718476D02*
X-22776428Y-728000D01*
X-22776428Y-728000D02*
X-22795476Y-737524D01*
X-22795476Y-737524D02*
X-22814524Y-737524D01*
X-22814524Y-737524D02*
X-22833571Y-728000D01*
X-22833571Y-728000D02*
X-22843095Y-718476D01*
X-22843095Y-718476D02*
X-22852619Y-699428D01*
X-22852619Y-699428D02*
X-22862143Y-661333D01*
X-22862143Y-661333D02*
X-22862143Y-613714D01*
X-22862143Y-613714D02*
X-22852619Y-575619D01*
X-22852619Y-575619D02*
X-22843095Y-556571D01*
X-22843095Y-556571D02*
X-22833571Y-547048D01*
X-22833571Y-547048D02*
X-22814524Y-537524D01*
X-22662143Y-718476D02*
X-22652619Y-728000D01*
X-22652619Y-728000D02*
X-22662143Y-737524D01*
X-22662143Y-737524D02*
X-22671666Y-728000D01*
X-22671666Y-728000D02*
X-22662143Y-718476D01*
X-22662143Y-718476D02*
X-22662143Y-737524D01*
X-22462143Y-737524D02*
X-22576428Y-737524D01*
X-22519285Y-737524D02*
X-22519285Y-537524D01*
X-22519285Y-537524D02*
X-22538333Y-566095D01*
X-22538333Y-566095D02*
X-22557381Y-585143D01*
X-22557381Y-585143D02*
X-22576428Y-594667D01*
X-22385952Y-556571D02*
X-22376428Y-547048D01*
X-22376428Y-547048D02*
X-22357381Y-537524D01*
X-22357381Y-537524D02*
X-22309762Y-537524D01*
X-22309762Y-537524D02*
X-22290714Y-547048D01*
X-22290714Y-547048D02*
X-22281190Y-556571D01*
X-22281190Y-556571D02*
X-22271666Y-575619D01*
X-22271666Y-575619D02*
X-22271666Y-594667D01*
X-22271666Y-594667D02*
X-22281190Y-623238D01*
X-22281190Y-623238D02*
X-22395476Y-737524D01*
X-22395476Y-737524D02*
X-22271666Y-737524D01*
X-22100238Y-537524D02*
X-22138333Y-537524D01*
X-22138333Y-537524D02*
X-22157381Y-547048D01*
X-22157381Y-547048D02*
X-22166905Y-556571D01*
X-22166905Y-556571D02*
X-22185952Y-585143D01*
X-22185952Y-585143D02*
X-22195476Y-623238D01*
X-22195476Y-623238D02*
X-22195476Y-699428D01*
X-22195476Y-699428D02*
X-22185952Y-718476D01*
X-22185952Y-718476D02*
X-22176428Y-728000D01*
X-22176428Y-728000D02*
X-22157381Y-737524D01*
X-22157381Y-737524D02*
X-22119285Y-737524D01*
X-22119285Y-737524D02*
X-22100238Y-728000D01*
X-22100238Y-728000D02*
X-22090714Y-718476D01*
X-22090714Y-718476D02*
X-22081190Y-699428D01*
X-22081190Y-699428D02*
X-22081190Y-651810D01*
X-22081190Y-651810D02*
X-22090714Y-632762D01*
X-22090714Y-632762D02*
X-22100238Y-623238D01*
X-22100238Y-623238D02*
X-22119285Y-613714D01*
X-22119285Y-613714D02*
X-22157381Y-613714D01*
X-22157381Y-613714D02*
X-22176428Y-623238D01*
X-22176428Y-623238D02*
X-22185952Y-632762D01*
X-22185952Y-632762D02*
X-22195476Y-651810D01*
X-21957381Y-537524D02*
X-21938333Y-537524D01*
X-21938333Y-537524D02*
X-21919285Y-547048D01*
X-21919285Y-547048D02*
X-21909762Y-556571D01*
X-21909762Y-556571D02*
X-21900238Y-575619D01*
X-21900238Y-575619D02*
X-21890714Y-613714D01*
X-21890714Y-613714D02*
X-21890714Y-661333D01*
X-21890714Y-661333D02*
X-21900238Y-699428D01*
X-21900238Y-699428D02*
X-21909762Y-718476D01*
X-21909762Y-718476D02*
X-21919285Y-728000D01*
X-21919285Y-728000D02*
X-21938333Y-737524D01*
X-21938333Y-737524D02*
X-21957381Y-737524D01*
X-21957381Y-737524D02*
X-21976428Y-728000D01*
X-21976428Y-728000D02*
X-21985952Y-718476D01*
X-21985952Y-718476D02*
X-21995476Y-699428D01*
X-21995476Y-699428D02*
X-22005000Y-661333D01*
X-22005000Y-661333D02*
X-22005000Y-613714D01*
X-22005000Y-613714D02*
X-21995476Y-575619D01*
X-21995476Y-575619D02*
X-21985952Y-556571D01*
X-21985952Y-556571D02*
X-21976428Y-547048D01*
X-21976428Y-547048D02*
X-21957381Y-537524D01*
X-21814524Y-537524D02*
X-21814524Y-575619D01*
X-21738333Y-537524D02*
X-21738333Y-575619D01*
X-21443095Y-813714D02*
X-21452619Y-804190D01*
X-21452619Y-804190D02*
X-21471666Y-775619D01*
X-21471666Y-775619D02*
X-21481190Y-756571D01*
X-21481190Y-756571D02*
X-21490714Y-728000D01*
X-21490714Y-728000D02*
X-21500238Y-680381D01*
X-21500238Y-680381D02*
X-21500238Y-642286D01*
X-21500238Y-642286D02*
X-21490714Y-594667D01*
X-21490714Y-594667D02*
X-21481190Y-566095D01*
X-21481190Y-566095D02*
X-21471666Y-547048D01*
X-21471666Y-547048D02*
X-21452619Y-518476D01*
X-21452619Y-518476D02*
X-21443095Y-508952D01*
X-21328809Y-537524D02*
X-21309762Y-537524D01*
X-21309762Y-537524D02*
X-21290714Y-547048D01*
X-21290714Y-547048D02*
X-21281190Y-556571D01*
X-21281190Y-556571D02*
X-21271666Y-575619D01*
X-21271666Y-575619D02*
X-21262143Y-613714D01*
X-21262143Y-613714D02*
X-21262143Y-661333D01*
X-21262143Y-661333D02*
X-21271666Y-699428D01*
X-21271666Y-699428D02*
X-21281190Y-718476D01*
X-21281190Y-718476D02*
X-21290714Y-728000D01*
X-21290714Y-728000D02*
X-21309762Y-737524D01*
X-21309762Y-737524D02*
X-21328809Y-737524D01*
X-21328809Y-737524D02*
X-21347857Y-728000D01*
X-21347857Y-728000D02*
X-21357381Y-718476D01*
X-21357381Y-718476D02*
X-21366904Y-699428D01*
X-21366904Y-699428D02*
X-21376428Y-661333D01*
X-21376428Y-661333D02*
X-21376428Y-613714D01*
X-21376428Y-613714D02*
X-21366904Y-575619D01*
X-21366904Y-575619D02*
X-21357381Y-556571D01*
X-21357381Y-556571D02*
X-21347857Y-547048D01*
X-21347857Y-547048D02*
X-21328809Y-537524D01*
X-21024047Y-737524D02*
X-21024047Y-537524D01*
X-20938333Y-737524D02*
X-20938333Y-632762D01*
X-20938333Y-632762D02*
X-20947857Y-613714D01*
X-20947857Y-613714D02*
X-20966904Y-604190D01*
X-20966904Y-604190D02*
X-20995476Y-604190D01*
X-20995476Y-604190D02*
X-21014523Y-613714D01*
X-21014523Y-613714D02*
X-21024047Y-623238D01*
X-20814523Y-737524D02*
X-20833571Y-728000D01*
X-20833571Y-728000D02*
X-20843095Y-718476D01*
X-20843095Y-718476D02*
X-20852619Y-699428D01*
X-20852619Y-699428D02*
X-20852619Y-642286D01*
X-20852619Y-642286D02*
X-20843095Y-623238D01*
X-20843095Y-623238D02*
X-20833571Y-613714D01*
X-20833571Y-613714D02*
X-20814523Y-604190D01*
X-20814523Y-604190D02*
X-20785952Y-604190D01*
X-20785952Y-604190D02*
X-20766904Y-613714D01*
X-20766904Y-613714D02*
X-20757381Y-623238D01*
X-20757381Y-623238D02*
X-20747857Y-642286D01*
X-20747857Y-642286D02*
X-20747857Y-699428D01*
X-20747857Y-699428D02*
X-20757381Y-718476D01*
X-20757381Y-718476D02*
X-20766904Y-728000D01*
X-20766904Y-728000D02*
X-20785952Y-737524D01*
X-20785952Y-737524D02*
X-20814523Y-737524D01*
X-20633571Y-737524D02*
X-20652619Y-728000D01*
X-20652619Y-728000D02*
X-20662142Y-708952D01*
X-20662142Y-708952D02*
X-20662142Y-537524D01*
X-20481190Y-728000D02*
X-20500238Y-737524D01*
X-20500238Y-737524D02*
X-20538333Y-737524D01*
X-20538333Y-737524D02*
X-20557381Y-728000D01*
X-20557381Y-728000D02*
X-20566904Y-708952D01*
X-20566904Y-708952D02*
X-20566904Y-632762D01*
X-20566904Y-632762D02*
X-20557381Y-613714D01*
X-20557381Y-613714D02*
X-20538333Y-604190D01*
X-20538333Y-604190D02*
X-20500238Y-604190D01*
X-20500238Y-604190D02*
X-20481190Y-613714D01*
X-20481190Y-613714D02*
X-20471666Y-632762D01*
X-20471666Y-632762D02*
X-20471666Y-651810D01*
X-20471666Y-651810D02*
X-20566904Y-670857D01*
X-20395476Y-728000D02*
X-20376428Y-737524D01*
X-20376428Y-737524D02*
X-20338333Y-737524D01*
X-20338333Y-737524D02*
X-20319285Y-728000D01*
X-20319285Y-728000D02*
X-20309761Y-708952D01*
X-20309761Y-708952D02*
X-20309761Y-699428D01*
X-20309761Y-699428D02*
X-20319285Y-680381D01*
X-20319285Y-680381D02*
X-20338333Y-670857D01*
X-20338333Y-670857D02*
X-20366904Y-670857D01*
X-20366904Y-670857D02*
X-20385952Y-661333D01*
X-20385952Y-661333D02*
X-20395476Y-642286D01*
X-20395476Y-642286D02*
X-20395476Y-632762D01*
X-20395476Y-632762D02*
X-20385952Y-613714D01*
X-20385952Y-613714D02*
X-20366904Y-604190D01*
X-20366904Y-604190D02*
X-20338333Y-604190D01*
X-20338333Y-604190D02*
X-20319285Y-613714D01*
X-20071666Y-661333D02*
X-19919285Y-661333D01*
X-19995476Y-737524D02*
X-19995476Y-585143D01*
X-19585952Y-604190D02*
X-19585952Y-737524D01*
X-19633571Y-528000D02*
X-19681190Y-670857D01*
X-19681190Y-670857D02*
X-19557380Y-670857D01*
X-19338333Y-728000D02*
X-19319285Y-737524D01*
X-19319285Y-737524D02*
X-19281190Y-737524D01*
X-19281190Y-737524D02*
X-19262142Y-728000D01*
X-19262142Y-728000D02*
X-19252618Y-708952D01*
X-19252618Y-708952D02*
X-19252618Y-699428D01*
X-19252618Y-699428D02*
X-19262142Y-680381D01*
X-19262142Y-680381D02*
X-19281190Y-670857D01*
X-19281190Y-670857D02*
X-19309761Y-670857D01*
X-19309761Y-670857D02*
X-19328809Y-661333D01*
X-19328809Y-661333D02*
X-19338333Y-642286D01*
X-19338333Y-642286D02*
X-19338333Y-632762D01*
X-19338333Y-632762D02*
X-19328809Y-613714D01*
X-19328809Y-613714D02*
X-19309761Y-604190D01*
X-19309761Y-604190D02*
X-19281190Y-604190D01*
X-19281190Y-604190D02*
X-19262142Y-613714D01*
X-19138333Y-737524D02*
X-19157380Y-728000D01*
X-19157380Y-728000D02*
X-19166904Y-708952D01*
X-19166904Y-708952D02*
X-19166904Y-537524D01*
X-19033571Y-737524D02*
X-19052618Y-728000D01*
X-19052618Y-728000D02*
X-19062142Y-718476D01*
X-19062142Y-718476D02*
X-19071666Y-699428D01*
X-19071666Y-699428D02*
X-19071666Y-642286D01*
X-19071666Y-642286D02*
X-19062142Y-623238D01*
X-19062142Y-623238D02*
X-19052618Y-613714D01*
X-19052618Y-613714D02*
X-19033571Y-604190D01*
X-19033571Y-604190D02*
X-19004999Y-604190D01*
X-19004999Y-604190D02*
X-18985952Y-613714D01*
X-18985952Y-613714D02*
X-18976428Y-623238D01*
X-18976428Y-623238D02*
X-18966904Y-642286D01*
X-18966904Y-642286D02*
X-18966904Y-699428D01*
X-18966904Y-699428D02*
X-18976428Y-718476D01*
X-18976428Y-718476D02*
X-18985952Y-728000D01*
X-18985952Y-728000D02*
X-19004999Y-737524D01*
X-19004999Y-737524D02*
X-19033571Y-737524D01*
X-18909761Y-604190D02*
X-18833571Y-604190D01*
X-18881190Y-537524D02*
X-18881190Y-708952D01*
X-18881190Y-708952D02*
X-18871666Y-728000D01*
X-18871666Y-728000D02*
X-18852618Y-737524D01*
X-18852618Y-737524D02*
X-18833571Y-737524D01*
X-18776428Y-728000D02*
X-18757380Y-737524D01*
X-18757380Y-737524D02*
X-18719285Y-737524D01*
X-18719285Y-737524D02*
X-18700237Y-728000D01*
X-18700237Y-728000D02*
X-18690714Y-708952D01*
X-18690714Y-708952D02*
X-18690714Y-699428D01*
X-18690714Y-699428D02*
X-18700237Y-680381D01*
X-18700237Y-680381D02*
X-18719285Y-670857D01*
X-18719285Y-670857D02*
X-18747857Y-670857D01*
X-18747857Y-670857D02*
X-18766904Y-661333D01*
X-18766904Y-661333D02*
X-18776428Y-642286D01*
X-18776428Y-642286D02*
X-18776428Y-632762D01*
X-18776428Y-632762D02*
X-18766904Y-613714D01*
X-18766904Y-613714D02*
X-18747857Y-604190D01*
X-18747857Y-604190D02*
X-18719285Y-604190D01*
X-18719285Y-604190D02*
X-18700237Y-613714D01*
X-18624047Y-813714D02*
X-18614523Y-804190D01*
X-18614523Y-804190D02*
X-18595476Y-775619D01*
X-18595476Y-775619D02*
X-18585952Y-756571D01*
X-18585952Y-756571D02*
X-18576428Y-728000D01*
X-18576428Y-728000D02*
X-18566904Y-680381D01*
X-18566904Y-680381D02*
X-18566904Y-642286D01*
X-18566904Y-642286D02*
X-18576428Y-594667D01*
X-18576428Y-594667D02*
X-18585952Y-566095D01*
X-18585952Y-566095D02*
X-18595476Y-547048D01*
X-18595476Y-547048D02*
X-18614523Y-518476D01*
X-18614523Y-518476D02*
X-18624047Y-508952D01*
X-25005000Y-965000D02*
G75*
G03*
X-25005000Y-965000I-100000J0D01*
G01*
X-24662143Y-857524D02*
X-24757381Y-857524D01*
X-24757381Y-857524D02*
X-24766905Y-952762D01*
X-24766905Y-952762D02*
X-24757381Y-943238D01*
X-24757381Y-943238D02*
X-24738333Y-933714D01*
X-24738333Y-933714D02*
X-24690714Y-933714D01*
X-24690714Y-933714D02*
X-24671667Y-943238D01*
X-24671667Y-943238D02*
X-24662143Y-952762D01*
X-24662143Y-952762D02*
X-24652619Y-971809D01*
X-24652619Y-971809D02*
X-24652619Y-1019428D01*
X-24652619Y-1019428D02*
X-24662143Y-1038476D01*
X-24662143Y-1038476D02*
X-24671667Y-1048000D01*
X-24671667Y-1048000D02*
X-24690714Y-1057524D01*
X-24690714Y-1057524D02*
X-24738333Y-1057524D01*
X-24738333Y-1057524D02*
X-24757381Y-1048000D01*
X-24757381Y-1048000D02*
X-24766905Y-1038476D01*
X-24566905Y-1038476D02*
X-24557381Y-1048000D01*
X-24557381Y-1048000D02*
X-24566905Y-1057524D01*
X-24566905Y-1057524D02*
X-24576428Y-1048000D01*
X-24576428Y-1048000D02*
X-24566905Y-1038476D01*
X-24566905Y-1038476D02*
X-24566905Y-1057524D01*
X-24433571Y-857524D02*
X-24414524Y-857524D01*
X-24414524Y-857524D02*
X-24395476Y-867048D01*
X-24395476Y-867048D02*
X-24385952Y-876571D01*
X-24385952Y-876571D02*
X-24376428Y-895619D01*
X-24376428Y-895619D02*
X-24366905Y-933714D01*
X-24366905Y-933714D02*
X-24366905Y-981333D01*
X-24366905Y-981333D02*
X-24376428Y-1019428D01*
X-24376428Y-1019428D02*
X-24385952Y-1038476D01*
X-24385952Y-1038476D02*
X-24395476Y-1048000D01*
X-24395476Y-1048000D02*
X-24414524Y-1057524D01*
X-24414524Y-1057524D02*
X-24433571Y-1057524D01*
X-24433571Y-1057524D02*
X-24452619Y-1048000D01*
X-24452619Y-1048000D02*
X-24462143Y-1038476D01*
X-24462143Y-1038476D02*
X-24471667Y-1019428D01*
X-24471667Y-1019428D02*
X-24481190Y-981333D01*
X-24481190Y-981333D02*
X-24481190Y-933714D01*
X-24481190Y-933714D02*
X-24471667Y-895619D01*
X-24471667Y-895619D02*
X-24462143Y-876571D01*
X-24462143Y-876571D02*
X-24452619Y-867048D01*
X-24452619Y-867048D02*
X-24433571Y-857524D01*
X-24243095Y-857524D02*
X-24224047Y-857524D01*
X-24224047Y-857524D02*
X-24205000Y-867048D01*
X-24205000Y-867048D02*
X-24195476Y-876571D01*
X-24195476Y-876571D02*
X-24185952Y-895619D01*
X-24185952Y-895619D02*
X-24176428Y-933714D01*
X-24176428Y-933714D02*
X-24176428Y-981333D01*
X-24176428Y-981333D02*
X-24185952Y-1019428D01*
X-24185952Y-1019428D02*
X-24195476Y-1038476D01*
X-24195476Y-1038476D02*
X-24205000Y-1048000D01*
X-24205000Y-1048000D02*
X-24224047Y-1057524D01*
X-24224047Y-1057524D02*
X-24243095Y-1057524D01*
X-24243095Y-1057524D02*
X-24262143Y-1048000D01*
X-24262143Y-1048000D02*
X-24271667Y-1038476D01*
X-24271667Y-1038476D02*
X-24281190Y-1019428D01*
X-24281190Y-1019428D02*
X-24290714Y-981333D01*
X-24290714Y-981333D02*
X-24290714Y-933714D01*
X-24290714Y-933714D02*
X-24281190Y-895619D01*
X-24281190Y-895619D02*
X-24271667Y-876571D01*
X-24271667Y-876571D02*
X-24262143Y-867048D01*
X-24262143Y-867048D02*
X-24243095Y-857524D01*
X-24052619Y-857524D02*
X-24033571Y-857524D01*
X-24033571Y-857524D02*
X-24014524Y-867048D01*
X-24014524Y-867048D02*
X-24005000Y-876571D01*
X-24005000Y-876571D02*
X-23995476Y-895619D01*
X-23995476Y-895619D02*
X-23985952Y-933714D01*
X-23985952Y-933714D02*
X-23985952Y-981333D01*
X-23985952Y-981333D02*
X-23995476Y-1019428D01*
X-23995476Y-1019428D02*
X-24005000Y-1038476D01*
X-24005000Y-1038476D02*
X-24014524Y-1048000D01*
X-24014524Y-1048000D02*
X-24033571Y-1057524D01*
X-24033571Y-1057524D02*
X-24052619Y-1057524D01*
X-24052619Y-1057524D02*
X-24071667Y-1048000D01*
X-24071667Y-1048000D02*
X-24081190Y-1038476D01*
X-24081190Y-1038476D02*
X-24090714Y-1019428D01*
X-24090714Y-1019428D02*
X-24100238Y-981333D01*
X-24100238Y-981333D02*
X-24100238Y-933714D01*
X-24100238Y-933714D02*
X-24090714Y-895619D01*
X-24090714Y-895619D02*
X-24081190Y-876571D01*
X-24081190Y-876571D02*
X-24071667Y-867048D01*
X-24071667Y-867048D02*
X-24052619Y-857524D01*
X-23900238Y-1057524D02*
X-23900238Y-924190D01*
X-23900238Y-943238D02*
X-23890714Y-933714D01*
X-23890714Y-933714D02*
X-23871667Y-924190D01*
X-23871667Y-924190D02*
X-23843095Y-924190D01*
X-23843095Y-924190D02*
X-23824047Y-933714D01*
X-23824047Y-933714D02*
X-23814524Y-952762D01*
X-23814524Y-952762D02*
X-23814524Y-1057524D01*
X-23814524Y-952762D02*
X-23805000Y-933714D01*
X-23805000Y-933714D02*
X-23785952Y-924190D01*
X-23785952Y-924190D02*
X-23757381Y-924190D01*
X-23757381Y-924190D02*
X-23738333Y-933714D01*
X-23738333Y-933714D02*
X-23728809Y-952762D01*
X-23728809Y-952762D02*
X-23728809Y-1057524D01*
X-23633571Y-1057524D02*
X-23633571Y-924190D01*
X-23633571Y-943238D02*
X-23624047Y-933714D01*
X-23624047Y-933714D02*
X-23605000Y-924190D01*
X-23605000Y-924190D02*
X-23576428Y-924190D01*
X-23576428Y-924190D02*
X-23557381Y-933714D01*
X-23557381Y-933714D02*
X-23547857Y-952762D01*
X-23547857Y-952762D02*
X-23547857Y-1057524D01*
X-23547857Y-952762D02*
X-23538333Y-933714D01*
X-23538333Y-933714D02*
X-23519286Y-924190D01*
X-23519286Y-924190D02*
X-23490714Y-924190D01*
X-23490714Y-924190D02*
X-23471666Y-933714D01*
X-23471666Y-933714D02*
X-23462143Y-952762D01*
X-23462143Y-952762D02*
X-23462143Y-1057524D01*
X-23071666Y-848000D02*
X-23243095Y-1105143D01*
X-22814524Y-857524D02*
X-22795476Y-857524D01*
X-22795476Y-857524D02*
X-22776428Y-867048D01*
X-22776428Y-867048D02*
X-22766904Y-876571D01*
X-22766904Y-876571D02*
X-22757381Y-895619D01*
X-22757381Y-895619D02*
X-22747857Y-933714D01*
X-22747857Y-933714D02*
X-22747857Y-981333D01*
X-22747857Y-981333D02*
X-22757381Y-1019428D01*
X-22757381Y-1019428D02*
X-22766904Y-1038476D01*
X-22766904Y-1038476D02*
X-22776428Y-1048000D01*
X-22776428Y-1048000D02*
X-22795476Y-1057524D01*
X-22795476Y-1057524D02*
X-22814524Y-1057524D01*
X-22814524Y-1057524D02*
X-22833571Y-1048000D01*
X-22833571Y-1048000D02*
X-22843095Y-1038476D01*
X-22843095Y-1038476D02*
X-22852619Y-1019428D01*
X-22852619Y-1019428D02*
X-22862143Y-981333D01*
X-22862143Y-981333D02*
X-22862143Y-933714D01*
X-22862143Y-933714D02*
X-22852619Y-895619D01*
X-22852619Y-895619D02*
X-22843095Y-876571D01*
X-22843095Y-876571D02*
X-22833571Y-867048D01*
X-22833571Y-867048D02*
X-22814524Y-857524D01*
X-22662143Y-1038476D02*
X-22652619Y-1048000D01*
X-22652619Y-1048000D02*
X-22662143Y-1057524D01*
X-22662143Y-1057524D02*
X-22671666Y-1048000D01*
X-22671666Y-1048000D02*
X-22662143Y-1038476D01*
X-22662143Y-1038476D02*
X-22662143Y-1057524D01*
X-22462143Y-1057524D02*
X-22576428Y-1057524D01*
X-22519285Y-1057524D02*
X-22519285Y-857524D01*
X-22519285Y-857524D02*
X-22538333Y-886095D01*
X-22538333Y-886095D02*
X-22557381Y-905143D01*
X-22557381Y-905143D02*
X-22576428Y-914667D01*
X-22366905Y-1057524D02*
X-22328809Y-1057524D01*
X-22328809Y-1057524D02*
X-22309762Y-1048000D01*
X-22309762Y-1048000D02*
X-22300238Y-1038476D01*
X-22300238Y-1038476D02*
X-22281190Y-1009905D01*
X-22281190Y-1009905D02*
X-22271666Y-971809D01*
X-22271666Y-971809D02*
X-22271666Y-895619D01*
X-22271666Y-895619D02*
X-22281190Y-876571D01*
X-22281190Y-876571D02*
X-22290714Y-867048D01*
X-22290714Y-867048D02*
X-22309762Y-857524D01*
X-22309762Y-857524D02*
X-22347857Y-857524D01*
X-22347857Y-857524D02*
X-22366905Y-867048D01*
X-22366905Y-867048D02*
X-22376428Y-876571D01*
X-22376428Y-876571D02*
X-22385952Y-895619D01*
X-22385952Y-895619D02*
X-22385952Y-943238D01*
X-22385952Y-943238D02*
X-22376428Y-962286D01*
X-22376428Y-962286D02*
X-22366905Y-971809D01*
X-22366905Y-971809D02*
X-22347857Y-981333D01*
X-22347857Y-981333D02*
X-22309762Y-981333D01*
X-22309762Y-981333D02*
X-22290714Y-971809D01*
X-22290714Y-971809D02*
X-22281190Y-962286D01*
X-22281190Y-962286D02*
X-22271666Y-943238D01*
X-22100238Y-857524D02*
X-22138333Y-857524D01*
X-22138333Y-857524D02*
X-22157381Y-867048D01*
X-22157381Y-867048D02*
X-22166905Y-876571D01*
X-22166905Y-876571D02*
X-22185952Y-905143D01*
X-22185952Y-905143D02*
X-22195476Y-943238D01*
X-22195476Y-943238D02*
X-22195476Y-1019428D01*
X-22195476Y-1019428D02*
X-22185952Y-1038476D01*
X-22185952Y-1038476D02*
X-22176428Y-1048000D01*
X-22176428Y-1048000D02*
X-22157381Y-1057524D01*
X-22157381Y-1057524D02*
X-22119285Y-1057524D01*
X-22119285Y-1057524D02*
X-22100238Y-1048000D01*
X-22100238Y-1048000D02*
X-22090714Y-1038476D01*
X-22090714Y-1038476D02*
X-22081190Y-1019428D01*
X-22081190Y-1019428D02*
X-22081190Y-971809D01*
X-22081190Y-971809D02*
X-22090714Y-952762D01*
X-22090714Y-952762D02*
X-22100238Y-943238D01*
X-22100238Y-943238D02*
X-22119285Y-933714D01*
X-22119285Y-933714D02*
X-22157381Y-933714D01*
X-22157381Y-933714D02*
X-22176428Y-943238D01*
X-22176428Y-943238D02*
X-22185952Y-952762D01*
X-22185952Y-952762D02*
X-22195476Y-971809D01*
X-21985952Y-1057524D02*
X-21947857Y-1057524D01*
X-21947857Y-1057524D02*
X-21928809Y-1048000D01*
X-21928809Y-1048000D02*
X-21919285Y-1038476D01*
X-21919285Y-1038476D02*
X-21900238Y-1009905D01*
X-21900238Y-1009905D02*
X-21890714Y-971809D01*
X-21890714Y-971809D02*
X-21890714Y-895619D01*
X-21890714Y-895619D02*
X-21900238Y-876571D01*
X-21900238Y-876571D02*
X-21909762Y-867048D01*
X-21909762Y-867048D02*
X-21928809Y-857524D01*
X-21928809Y-857524D02*
X-21966905Y-857524D01*
X-21966905Y-857524D02*
X-21985952Y-867048D01*
X-21985952Y-867048D02*
X-21995476Y-876571D01*
X-21995476Y-876571D02*
X-22005000Y-895619D01*
X-22005000Y-895619D02*
X-22005000Y-943238D01*
X-22005000Y-943238D02*
X-21995476Y-962286D01*
X-21995476Y-962286D02*
X-21985952Y-971809D01*
X-21985952Y-971809D02*
X-21966905Y-981333D01*
X-21966905Y-981333D02*
X-21928809Y-981333D01*
X-21928809Y-981333D02*
X-21909762Y-971809D01*
X-21909762Y-971809D02*
X-21900238Y-962286D01*
X-21900238Y-962286D02*
X-21890714Y-943238D01*
X-21814524Y-857524D02*
X-21814524Y-895619D01*
X-21738333Y-857524D02*
X-21738333Y-895619D01*
X-21443095Y-1133714D02*
X-21452619Y-1124190D01*
X-21452619Y-1124190D02*
X-21471666Y-1095619D01*
X-21471666Y-1095619D02*
X-21481190Y-1076571D01*
X-21481190Y-1076571D02*
X-21490714Y-1048000D01*
X-21490714Y-1048000D02*
X-21500238Y-1000381D01*
X-21500238Y-1000381D02*
X-21500238Y-962286D01*
X-21500238Y-962286D02*
X-21490714Y-914667D01*
X-21490714Y-914667D02*
X-21481190Y-886095D01*
X-21481190Y-886095D02*
X-21471666Y-867048D01*
X-21471666Y-867048D02*
X-21452619Y-838476D01*
X-21452619Y-838476D02*
X-21443095Y-828952D01*
X-21376428Y-876571D02*
X-21366904Y-867048D01*
X-21366904Y-867048D02*
X-21347857Y-857524D01*
X-21347857Y-857524D02*
X-21300238Y-857524D01*
X-21300238Y-857524D02*
X-21281190Y-867048D01*
X-21281190Y-867048D02*
X-21271666Y-876571D01*
X-21271666Y-876571D02*
X-21262143Y-895619D01*
X-21262143Y-895619D02*
X-21262143Y-914667D01*
X-21262143Y-914667D02*
X-21271666Y-943238D01*
X-21271666Y-943238D02*
X-21385952Y-1057524D01*
X-21385952Y-1057524D02*
X-21262143Y-1057524D01*
X-21024047Y-1057524D02*
X-21024047Y-857524D01*
X-20938333Y-1057524D02*
X-20938333Y-952762D01*
X-20938333Y-952762D02*
X-20947857Y-933714D01*
X-20947857Y-933714D02*
X-20966904Y-924190D01*
X-20966904Y-924190D02*
X-20995476Y-924190D01*
X-20995476Y-924190D02*
X-21014523Y-933714D01*
X-21014523Y-933714D02*
X-21024047Y-943238D01*
X-20814523Y-1057524D02*
X-20833571Y-1048000D01*
X-20833571Y-1048000D02*
X-20843095Y-1038476D01*
X-20843095Y-1038476D02*
X-20852619Y-1019428D01*
X-20852619Y-1019428D02*
X-20852619Y-962286D01*
X-20852619Y-962286D02*
X-20843095Y-943238D01*
X-20843095Y-943238D02*
X-20833571Y-933714D01*
X-20833571Y-933714D02*
X-20814523Y-924190D01*
X-20814523Y-924190D02*
X-20785952Y-924190D01*
X-20785952Y-924190D02*
X-20766904Y-933714D01*
X-20766904Y-933714D02*
X-20757381Y-943238D01*
X-20757381Y-943238D02*
X-20747857Y-962286D01*
X-20747857Y-962286D02*
X-20747857Y-1019428D01*
X-20747857Y-1019428D02*
X-20757381Y-1038476D01*
X-20757381Y-1038476D02*
X-20766904Y-1048000D01*
X-20766904Y-1048000D02*
X-20785952Y-1057524D01*
X-20785952Y-1057524D02*
X-20814523Y-1057524D01*
X-20633571Y-1057524D02*
X-20652619Y-1048000D01*
X-20652619Y-1048000D02*
X-20662142Y-1028952D01*
X-20662142Y-1028952D02*
X-20662142Y-857524D01*
X-20481190Y-1048000D02*
X-20500238Y-1057524D01*
X-20500238Y-1057524D02*
X-20538333Y-1057524D01*
X-20538333Y-1057524D02*
X-20557381Y-1048000D01*
X-20557381Y-1048000D02*
X-20566904Y-1028952D01*
X-20566904Y-1028952D02*
X-20566904Y-952762D01*
X-20566904Y-952762D02*
X-20557381Y-933714D01*
X-20557381Y-933714D02*
X-20538333Y-924190D01*
X-20538333Y-924190D02*
X-20500238Y-924190D01*
X-20500238Y-924190D02*
X-20481190Y-933714D01*
X-20481190Y-933714D02*
X-20471666Y-952762D01*
X-20471666Y-952762D02*
X-20471666Y-971809D01*
X-20471666Y-971809D02*
X-20566904Y-990857D01*
X-20395476Y-1048000D02*
X-20376428Y-1057524D01*
X-20376428Y-1057524D02*
X-20338333Y-1057524D01*
X-20338333Y-1057524D02*
X-20319285Y-1048000D01*
X-20319285Y-1048000D02*
X-20309761Y-1028952D01*
X-20309761Y-1028952D02*
X-20309761Y-1019428D01*
X-20309761Y-1019428D02*
X-20319285Y-1000381D01*
X-20319285Y-1000381D02*
X-20338333Y-990857D01*
X-20338333Y-990857D02*
X-20366904Y-990857D01*
X-20366904Y-990857D02*
X-20385952Y-981333D01*
X-20385952Y-981333D02*
X-20395476Y-962286D01*
X-20395476Y-962286D02*
X-20395476Y-952762D01*
X-20395476Y-952762D02*
X-20385952Y-933714D01*
X-20385952Y-933714D02*
X-20366904Y-924190D01*
X-20366904Y-924190D02*
X-20338333Y-924190D01*
X-20338333Y-924190D02*
X-20319285Y-933714D01*
X-20243095Y-1133714D02*
X-20233571Y-1124190D01*
X-20233571Y-1124190D02*
X-20214523Y-1095619D01*
X-20214523Y-1095619D02*
X-20205000Y-1076571D01*
X-20205000Y-1076571D02*
X-20195476Y-1048000D01*
X-20195476Y-1048000D02*
X-20185952Y-1000381D01*
X-20185952Y-1000381D02*
X-20185952Y-962286D01*
X-20185952Y-962286D02*
X-20195476Y-914667D01*
X-20195476Y-914667D02*
X-20205000Y-886095D01*
X-20205000Y-886095D02*
X-20214523Y-867048D01*
X-20214523Y-867048D02*
X-20233571Y-838476D01*
X-20233571Y-838476D02*
X-20243095Y-828952D01*
X-25105000Y-1185000D02*
X-25105000Y-1385000D01*
X-25205000Y-1285000D02*
X-25005000Y-1285000D01*
X-24776428Y-1177524D02*
X-24643095Y-1177524D01*
X-24643095Y-1177524D02*
X-24728809Y-1377524D01*
X-24566905Y-1358476D02*
X-24557381Y-1368000D01*
X-24557381Y-1368000D02*
X-24566905Y-1377524D01*
X-24566905Y-1377524D02*
X-24576428Y-1368000D01*
X-24576428Y-1368000D02*
X-24566905Y-1358476D01*
X-24566905Y-1358476D02*
X-24566905Y-1377524D01*
X-24433571Y-1177524D02*
X-24414524Y-1177524D01*
X-24414524Y-1177524D02*
X-24395476Y-1187048D01*
X-24395476Y-1187048D02*
X-24385952Y-1196571D01*
X-24385952Y-1196571D02*
X-24376428Y-1215619D01*
X-24376428Y-1215619D02*
X-24366905Y-1253714D01*
X-24366905Y-1253714D02*
X-24366905Y-1301333D01*
X-24366905Y-1301333D02*
X-24376428Y-1339429D01*
X-24376428Y-1339429D02*
X-24385952Y-1358476D01*
X-24385952Y-1358476D02*
X-24395476Y-1368000D01*
X-24395476Y-1368000D02*
X-24414524Y-1377524D01*
X-24414524Y-1377524D02*
X-24433571Y-1377524D01*
X-24433571Y-1377524D02*
X-24452619Y-1368000D01*
X-24452619Y-1368000D02*
X-24462143Y-1358476D01*
X-24462143Y-1358476D02*
X-24471667Y-1339429D01*
X-24471667Y-1339429D02*
X-24481190Y-1301333D01*
X-24481190Y-1301333D02*
X-24481190Y-1253714D01*
X-24481190Y-1253714D02*
X-24471667Y-1215619D01*
X-24471667Y-1215619D02*
X-24462143Y-1196571D01*
X-24462143Y-1196571D02*
X-24452619Y-1187048D01*
X-24452619Y-1187048D02*
X-24433571Y-1177524D01*
X-24243095Y-1177524D02*
X-24224047Y-1177524D01*
X-24224047Y-1177524D02*
X-24205000Y-1187048D01*
X-24205000Y-1187048D02*
X-24195476Y-1196571D01*
X-24195476Y-1196571D02*
X-24185952Y-1215619D01*
X-24185952Y-1215619D02*
X-24176428Y-1253714D01*
X-24176428Y-1253714D02*
X-24176428Y-1301333D01*
X-24176428Y-1301333D02*
X-24185952Y-1339429D01*
X-24185952Y-1339429D02*
X-24195476Y-1358476D01*
X-24195476Y-1358476D02*
X-24205000Y-1368000D01*
X-24205000Y-1368000D02*
X-24224047Y-1377524D01*
X-24224047Y-1377524D02*
X-24243095Y-1377524D01*
X-24243095Y-1377524D02*
X-24262143Y-1368000D01*
X-24262143Y-1368000D02*
X-24271667Y-1358476D01*
X-24271667Y-1358476D02*
X-24281190Y-1339429D01*
X-24281190Y-1339429D02*
X-24290714Y-1301333D01*
X-24290714Y-1301333D02*
X-24290714Y-1253714D01*
X-24290714Y-1253714D02*
X-24281190Y-1215619D01*
X-24281190Y-1215619D02*
X-24271667Y-1196571D01*
X-24271667Y-1196571D02*
X-24262143Y-1187048D01*
X-24262143Y-1187048D02*
X-24243095Y-1177524D01*
X-24052619Y-1177524D02*
X-24033571Y-1177524D01*
X-24033571Y-1177524D02*
X-24014524Y-1187048D01*
X-24014524Y-1187048D02*
X-24005000Y-1196571D01*
X-24005000Y-1196571D02*
X-23995476Y-1215619D01*
X-23995476Y-1215619D02*
X-23985952Y-1253714D01*
X-23985952Y-1253714D02*
X-23985952Y-1301333D01*
X-23985952Y-1301333D02*
X-23995476Y-1339429D01*
X-23995476Y-1339429D02*
X-24005000Y-1358476D01*
X-24005000Y-1358476D02*
X-24014524Y-1368000D01*
X-24014524Y-1368000D02*
X-24033571Y-1377524D01*
X-24033571Y-1377524D02*
X-24052619Y-1377524D01*
X-24052619Y-1377524D02*
X-24071667Y-1368000D01*
X-24071667Y-1368000D02*
X-24081190Y-1358476D01*
X-24081190Y-1358476D02*
X-24090714Y-1339429D01*
X-24090714Y-1339429D02*
X-24100238Y-1301333D01*
X-24100238Y-1301333D02*
X-24100238Y-1253714D01*
X-24100238Y-1253714D02*
X-24090714Y-1215619D01*
X-24090714Y-1215619D02*
X-24081190Y-1196571D01*
X-24081190Y-1196571D02*
X-24071667Y-1187048D01*
X-24071667Y-1187048D02*
X-24052619Y-1177524D01*
X-23900238Y-1377524D02*
X-23900238Y-1244190D01*
X-23900238Y-1263238D02*
X-23890714Y-1253714D01*
X-23890714Y-1253714D02*
X-23871667Y-1244190D01*
X-23871667Y-1244190D02*
X-23843095Y-1244190D01*
X-23843095Y-1244190D02*
X-23824047Y-1253714D01*
X-23824047Y-1253714D02*
X-23814524Y-1272762D01*
X-23814524Y-1272762D02*
X-23814524Y-1377524D01*
X-23814524Y-1272762D02*
X-23805000Y-1253714D01*
X-23805000Y-1253714D02*
X-23785952Y-1244190D01*
X-23785952Y-1244190D02*
X-23757381Y-1244190D01*
X-23757381Y-1244190D02*
X-23738333Y-1253714D01*
X-23738333Y-1253714D02*
X-23728809Y-1272762D01*
X-23728809Y-1272762D02*
X-23728809Y-1377524D01*
X-23633571Y-1377524D02*
X-23633571Y-1244190D01*
X-23633571Y-1263238D02*
X-23624047Y-1253714D01*
X-23624047Y-1253714D02*
X-23605000Y-1244190D01*
X-23605000Y-1244190D02*
X-23576428Y-1244190D01*
X-23576428Y-1244190D02*
X-23557381Y-1253714D01*
X-23557381Y-1253714D02*
X-23547857Y-1272762D01*
X-23547857Y-1272762D02*
X-23547857Y-1377524D01*
X-23547857Y-1272762D02*
X-23538333Y-1253714D01*
X-23538333Y-1253714D02*
X-23519286Y-1244190D01*
X-23519286Y-1244190D02*
X-23490714Y-1244190D01*
X-23490714Y-1244190D02*
X-23471666Y-1253714D01*
X-23471666Y-1253714D02*
X-23462143Y-1272762D01*
X-23462143Y-1272762D02*
X-23462143Y-1377524D01*
X-23071666Y-1168000D02*
X-23243095Y-1425143D01*
X-22814524Y-1177524D02*
X-22795476Y-1177524D01*
X-22795476Y-1177524D02*
X-22776428Y-1187048D01*
X-22776428Y-1187048D02*
X-22766904Y-1196571D01*
X-22766904Y-1196571D02*
X-22757381Y-1215619D01*
X-22757381Y-1215619D02*
X-22747857Y-1253714D01*
X-22747857Y-1253714D02*
X-22747857Y-1301333D01*
X-22747857Y-1301333D02*
X-22757381Y-1339429D01*
X-22757381Y-1339429D02*
X-22766904Y-1358476D01*
X-22766904Y-1358476D02*
X-22776428Y-1368000D01*
X-22776428Y-1368000D02*
X-22795476Y-1377524D01*
X-22795476Y-1377524D02*
X-22814524Y-1377524D01*
X-22814524Y-1377524D02*
X-22833571Y-1368000D01*
X-22833571Y-1368000D02*
X-22843095Y-1358476D01*
X-22843095Y-1358476D02*
X-22852619Y-1339429D01*
X-22852619Y-1339429D02*
X-22862143Y-1301333D01*
X-22862143Y-1301333D02*
X-22862143Y-1253714D01*
X-22862143Y-1253714D02*
X-22852619Y-1215619D01*
X-22852619Y-1215619D02*
X-22843095Y-1196571D01*
X-22843095Y-1196571D02*
X-22833571Y-1187048D01*
X-22833571Y-1187048D02*
X-22814524Y-1177524D01*
X-22662143Y-1358476D02*
X-22652619Y-1368000D01*
X-22652619Y-1368000D02*
X-22662143Y-1377524D01*
X-22662143Y-1377524D02*
X-22671666Y-1368000D01*
X-22671666Y-1368000D02*
X-22662143Y-1358476D01*
X-22662143Y-1358476D02*
X-22662143Y-1377524D01*
X-22576428Y-1196571D02*
X-22566904Y-1187048D01*
X-22566904Y-1187048D02*
X-22547857Y-1177524D01*
X-22547857Y-1177524D02*
X-22500238Y-1177524D01*
X-22500238Y-1177524D02*
X-22481190Y-1187048D01*
X-22481190Y-1187048D02*
X-22471666Y-1196571D01*
X-22471666Y-1196571D02*
X-22462143Y-1215619D01*
X-22462143Y-1215619D02*
X-22462143Y-1234667D01*
X-22462143Y-1234667D02*
X-22471666Y-1263238D01*
X-22471666Y-1263238D02*
X-22585952Y-1377524D01*
X-22585952Y-1377524D02*
X-22462143Y-1377524D01*
X-22395476Y-1177524D02*
X-22262143Y-1177524D01*
X-22262143Y-1177524D02*
X-22347857Y-1377524D01*
X-22090714Y-1177524D02*
X-22185952Y-1177524D01*
X-22185952Y-1177524D02*
X-22195476Y-1272762D01*
X-22195476Y-1272762D02*
X-22185952Y-1263238D01*
X-22185952Y-1263238D02*
X-22166905Y-1253714D01*
X-22166905Y-1253714D02*
X-22119285Y-1253714D01*
X-22119285Y-1253714D02*
X-22100238Y-1263238D01*
X-22100238Y-1263238D02*
X-22090714Y-1272762D01*
X-22090714Y-1272762D02*
X-22081190Y-1291810D01*
X-22081190Y-1291810D02*
X-22081190Y-1339429D01*
X-22081190Y-1339429D02*
X-22090714Y-1358476D01*
X-22090714Y-1358476D02*
X-22100238Y-1368000D01*
X-22100238Y-1368000D02*
X-22119285Y-1377524D01*
X-22119285Y-1377524D02*
X-22166905Y-1377524D01*
X-22166905Y-1377524D02*
X-22185952Y-1368000D01*
X-22185952Y-1368000D02*
X-22195476Y-1358476D01*
X-21909762Y-1177524D02*
X-21947857Y-1177524D01*
X-21947857Y-1177524D02*
X-21966905Y-1187048D01*
X-21966905Y-1187048D02*
X-21976428Y-1196571D01*
X-21976428Y-1196571D02*
X-21995476Y-1225143D01*
X-21995476Y-1225143D02*
X-22005000Y-1263238D01*
X-22005000Y-1263238D02*
X-22005000Y-1339429D01*
X-22005000Y-1339429D02*
X-21995476Y-1358476D01*
X-21995476Y-1358476D02*
X-21985952Y-1368000D01*
X-21985952Y-1368000D02*
X-21966905Y-1377524D01*
X-21966905Y-1377524D02*
X-21928809Y-1377524D01*
X-21928809Y-1377524D02*
X-21909762Y-1368000D01*
X-21909762Y-1368000D02*
X-21900238Y-1358476D01*
X-21900238Y-1358476D02*
X-21890714Y-1339429D01*
X-21890714Y-1339429D02*
X-21890714Y-1291810D01*
X-21890714Y-1291810D02*
X-21900238Y-1272762D01*
X-21900238Y-1272762D02*
X-21909762Y-1263238D01*
X-21909762Y-1263238D02*
X-21928809Y-1253714D01*
X-21928809Y-1253714D02*
X-21966905Y-1253714D01*
X-21966905Y-1253714D02*
X-21985952Y-1263238D01*
X-21985952Y-1263238D02*
X-21995476Y-1272762D01*
X-21995476Y-1272762D02*
X-22005000Y-1291810D01*
X-21814524Y-1177524D02*
X-21814524Y-1215619D01*
X-21738333Y-1177524D02*
X-21738333Y-1215619D01*
X-21443095Y-1453714D02*
X-21452619Y-1444190D01*
X-21452619Y-1444190D02*
X-21471666Y-1415619D01*
X-21471666Y-1415619D02*
X-21481190Y-1396571D01*
X-21481190Y-1396571D02*
X-21490714Y-1368000D01*
X-21490714Y-1368000D02*
X-21500238Y-1320381D01*
X-21500238Y-1320381D02*
X-21500238Y-1282286D01*
X-21500238Y-1282286D02*
X-21490714Y-1234667D01*
X-21490714Y-1234667D02*
X-21481190Y-1206095D01*
X-21481190Y-1206095D02*
X-21471666Y-1187048D01*
X-21471666Y-1187048D02*
X-21452619Y-1158476D01*
X-21452619Y-1158476D02*
X-21443095Y-1148952D01*
X-21271666Y-1177524D02*
X-21366904Y-1177524D01*
X-21366904Y-1177524D02*
X-21376428Y-1272762D01*
X-21376428Y-1272762D02*
X-21366904Y-1263238D01*
X-21366904Y-1263238D02*
X-21347857Y-1253714D01*
X-21347857Y-1253714D02*
X-21300238Y-1253714D01*
X-21300238Y-1253714D02*
X-21281190Y-1263238D01*
X-21281190Y-1263238D02*
X-21271666Y-1272762D01*
X-21271666Y-1272762D02*
X-21262143Y-1291810D01*
X-21262143Y-1291810D02*
X-21262143Y-1339429D01*
X-21262143Y-1339429D02*
X-21271666Y-1358476D01*
X-21271666Y-1358476D02*
X-21281190Y-1368000D01*
X-21281190Y-1368000D02*
X-21300238Y-1377524D01*
X-21300238Y-1377524D02*
X-21347857Y-1377524D01*
X-21347857Y-1377524D02*
X-21366904Y-1368000D01*
X-21366904Y-1368000D02*
X-21376428Y-1358476D01*
X-21024047Y-1377524D02*
X-21024047Y-1177524D01*
X-20938333Y-1377524D02*
X-20938333Y-1272762D01*
X-20938333Y-1272762D02*
X-20947857Y-1253714D01*
X-20947857Y-1253714D02*
X-20966904Y-1244190D01*
X-20966904Y-1244190D02*
X-20995476Y-1244190D01*
X-20995476Y-1244190D02*
X-21014523Y-1253714D01*
X-21014523Y-1253714D02*
X-21024047Y-1263238D01*
X-20814523Y-1377524D02*
X-20833571Y-1368000D01*
X-20833571Y-1368000D02*
X-20843095Y-1358476D01*
X-20843095Y-1358476D02*
X-20852619Y-1339429D01*
X-20852619Y-1339429D02*
X-20852619Y-1282286D01*
X-20852619Y-1282286D02*
X-20843095Y-1263238D01*
X-20843095Y-1263238D02*
X-20833571Y-1253714D01*
X-20833571Y-1253714D02*
X-20814523Y-1244190D01*
X-20814523Y-1244190D02*
X-20785952Y-1244190D01*
X-20785952Y-1244190D02*
X-20766904Y-1253714D01*
X-20766904Y-1253714D02*
X-20757381Y-1263238D01*
X-20757381Y-1263238D02*
X-20747857Y-1282286D01*
X-20747857Y-1282286D02*
X-20747857Y-1339429D01*
X-20747857Y-1339429D02*
X-20757381Y-1358476D01*
X-20757381Y-1358476D02*
X-20766904Y-1368000D01*
X-20766904Y-1368000D02*
X-20785952Y-1377524D01*
X-20785952Y-1377524D02*
X-20814523Y-1377524D01*
X-20633571Y-1377524D02*
X-20652619Y-1368000D01*
X-20652619Y-1368000D02*
X-20662142Y-1348952D01*
X-20662142Y-1348952D02*
X-20662142Y-1177524D01*
X-20481190Y-1368000D02*
X-20500238Y-1377524D01*
X-20500238Y-1377524D02*
X-20538333Y-1377524D01*
X-20538333Y-1377524D02*
X-20557381Y-1368000D01*
X-20557381Y-1368000D02*
X-20566904Y-1348952D01*
X-20566904Y-1348952D02*
X-20566904Y-1272762D01*
X-20566904Y-1272762D02*
X-20557381Y-1253714D01*
X-20557381Y-1253714D02*
X-20538333Y-1244190D01*
X-20538333Y-1244190D02*
X-20500238Y-1244190D01*
X-20500238Y-1244190D02*
X-20481190Y-1253714D01*
X-20481190Y-1253714D02*
X-20471666Y-1272762D01*
X-20471666Y-1272762D02*
X-20471666Y-1291810D01*
X-20471666Y-1291810D02*
X-20566904Y-1310857D01*
X-20395476Y-1368000D02*
X-20376428Y-1377524D01*
X-20376428Y-1377524D02*
X-20338333Y-1377524D01*
X-20338333Y-1377524D02*
X-20319285Y-1368000D01*
X-20319285Y-1368000D02*
X-20309761Y-1348952D01*
X-20309761Y-1348952D02*
X-20309761Y-1339429D01*
X-20309761Y-1339429D02*
X-20319285Y-1320381D01*
X-20319285Y-1320381D02*
X-20338333Y-1310857D01*
X-20338333Y-1310857D02*
X-20366904Y-1310857D01*
X-20366904Y-1310857D02*
X-20385952Y-1301333D01*
X-20385952Y-1301333D02*
X-20395476Y-1282286D01*
X-20395476Y-1282286D02*
X-20395476Y-1272762D01*
X-20395476Y-1272762D02*
X-20385952Y-1253714D01*
X-20385952Y-1253714D02*
X-20366904Y-1244190D01*
X-20366904Y-1244190D02*
X-20338333Y-1244190D01*
X-20338333Y-1244190D02*
X-20319285Y-1253714D01*
X-20243095Y-1453714D02*
X-20233571Y-1444190D01*
X-20233571Y-1444190D02*
X-20214523Y-1415619D01*
X-20214523Y-1415619D02*
X-20205000Y-1396571D01*
X-20205000Y-1396571D02*
X-20195476Y-1368000D01*
X-20195476Y-1368000D02*
X-20185952Y-1320381D01*
X-20185952Y-1320381D02*
X-20185952Y-1282286D01*
X-20185952Y-1282286D02*
X-20195476Y-1234667D01*
X-20195476Y-1234667D02*
X-20205000Y-1206095D01*
X-20205000Y-1206095D02*
X-20214523Y-1187048D01*
X-20214523Y-1187048D02*
X-20233571Y-1158476D01*
X-20233571Y-1158476D02*
X-20243095Y-1148952D01*
X-25034289Y-1675711D02*
X-25034289Y-1534289D01*
X-25175711Y-1534289D01*
X-25175711Y-1675711D01*
X-25034289Y-1675711D01*
X-24652619Y-1697524D02*
X-24766905Y-1697524D01*
X-24709762Y-1697524D02*
X-24709762Y-1497524D01*
X-24709762Y-1497524D02*
X-24728809Y-1526095D01*
X-24728809Y-1526095D02*
X-24747857Y-1545143D01*
X-24747857Y-1545143D02*
X-24766905Y-1554667D01*
X-24528809Y-1497524D02*
X-24509762Y-1497524D01*
X-24509762Y-1497524D02*
X-24490714Y-1507048D01*
X-24490714Y-1507048D02*
X-24481190Y-1516571D01*
X-24481190Y-1516571D02*
X-24471667Y-1535619D01*
X-24471667Y-1535619D02*
X-24462143Y-1573714D01*
X-24462143Y-1573714D02*
X-24462143Y-1621333D01*
X-24462143Y-1621333D02*
X-24471667Y-1659428D01*
X-24471667Y-1659428D02*
X-24481190Y-1678476D01*
X-24481190Y-1678476D02*
X-24490714Y-1688000D01*
X-24490714Y-1688000D02*
X-24509762Y-1697524D01*
X-24509762Y-1697524D02*
X-24528809Y-1697524D01*
X-24528809Y-1697524D02*
X-24547857Y-1688000D01*
X-24547857Y-1688000D02*
X-24557381Y-1678476D01*
X-24557381Y-1678476D02*
X-24566905Y-1659428D01*
X-24566905Y-1659428D02*
X-24576428Y-1621333D01*
X-24576428Y-1621333D02*
X-24576428Y-1573714D01*
X-24576428Y-1573714D02*
X-24566905Y-1535619D01*
X-24566905Y-1535619D02*
X-24557381Y-1516571D01*
X-24557381Y-1516571D02*
X-24547857Y-1507048D01*
X-24547857Y-1507048D02*
X-24528809Y-1497524D01*
X-24376428Y-1678476D02*
X-24366905Y-1688000D01*
X-24366905Y-1688000D02*
X-24376428Y-1697524D01*
X-24376428Y-1697524D02*
X-24385952Y-1688000D01*
X-24385952Y-1688000D02*
X-24376428Y-1678476D01*
X-24376428Y-1678476D02*
X-24376428Y-1697524D01*
X-24243095Y-1497524D02*
X-24224047Y-1497524D01*
X-24224047Y-1497524D02*
X-24205000Y-1507048D01*
X-24205000Y-1507048D02*
X-24195476Y-1516571D01*
X-24195476Y-1516571D02*
X-24185952Y-1535619D01*
X-24185952Y-1535619D02*
X-24176428Y-1573714D01*
X-24176428Y-1573714D02*
X-24176428Y-1621333D01*
X-24176428Y-1621333D02*
X-24185952Y-1659428D01*
X-24185952Y-1659428D02*
X-24195476Y-1678476D01*
X-24195476Y-1678476D02*
X-24205000Y-1688000D01*
X-24205000Y-1688000D02*
X-24224047Y-1697524D01*
X-24224047Y-1697524D02*
X-24243095Y-1697524D01*
X-24243095Y-1697524D02*
X-24262143Y-1688000D01*
X-24262143Y-1688000D02*
X-24271667Y-1678476D01*
X-24271667Y-1678476D02*
X-24281190Y-1659428D01*
X-24281190Y-1659428D02*
X-24290714Y-1621333D01*
X-24290714Y-1621333D02*
X-24290714Y-1573714D01*
X-24290714Y-1573714D02*
X-24281190Y-1535619D01*
X-24281190Y-1535619D02*
X-24271667Y-1516571D01*
X-24271667Y-1516571D02*
X-24262143Y-1507048D01*
X-24262143Y-1507048D02*
X-24243095Y-1497524D01*
X-24052619Y-1497524D02*
X-24033571Y-1497524D01*
X-24033571Y-1497524D02*
X-24014524Y-1507048D01*
X-24014524Y-1507048D02*
X-24005000Y-1516571D01*
X-24005000Y-1516571D02*
X-23995476Y-1535619D01*
X-23995476Y-1535619D02*
X-23985952Y-1573714D01*
X-23985952Y-1573714D02*
X-23985952Y-1621333D01*
X-23985952Y-1621333D02*
X-23995476Y-1659428D01*
X-23995476Y-1659428D02*
X-24005000Y-1678476D01*
X-24005000Y-1678476D02*
X-24014524Y-1688000D01*
X-24014524Y-1688000D02*
X-24033571Y-1697524D01*
X-24033571Y-1697524D02*
X-24052619Y-1697524D01*
X-24052619Y-1697524D02*
X-24071667Y-1688000D01*
X-24071667Y-1688000D02*
X-24081190Y-1678476D01*
X-24081190Y-1678476D02*
X-24090714Y-1659428D01*
X-24090714Y-1659428D02*
X-24100238Y-1621333D01*
X-24100238Y-1621333D02*
X-24100238Y-1573714D01*
X-24100238Y-1573714D02*
X-24090714Y-1535619D01*
X-24090714Y-1535619D02*
X-24081190Y-1516571D01*
X-24081190Y-1516571D02*
X-24071667Y-1507048D01*
X-24071667Y-1507048D02*
X-24052619Y-1497524D01*
X-23862143Y-1497524D02*
X-23843095Y-1497524D01*
X-23843095Y-1497524D02*
X-23824047Y-1507048D01*
X-23824047Y-1507048D02*
X-23814524Y-1516571D01*
X-23814524Y-1516571D02*
X-23805000Y-1535619D01*
X-23805000Y-1535619D02*
X-23795476Y-1573714D01*
X-23795476Y-1573714D02*
X-23795476Y-1621333D01*
X-23795476Y-1621333D02*
X-23805000Y-1659428D01*
X-23805000Y-1659428D02*
X-23814524Y-1678476D01*
X-23814524Y-1678476D02*
X-23824047Y-1688000D01*
X-23824047Y-1688000D02*
X-23843095Y-1697524D01*
X-23843095Y-1697524D02*
X-23862143Y-1697524D01*
X-23862143Y-1697524D02*
X-23881190Y-1688000D01*
X-23881190Y-1688000D02*
X-23890714Y-1678476D01*
X-23890714Y-1678476D02*
X-23900238Y-1659428D01*
X-23900238Y-1659428D02*
X-23909762Y-1621333D01*
X-23909762Y-1621333D02*
X-23909762Y-1573714D01*
X-23909762Y-1573714D02*
X-23900238Y-1535619D01*
X-23900238Y-1535619D02*
X-23890714Y-1516571D01*
X-23890714Y-1516571D02*
X-23881190Y-1507048D01*
X-23881190Y-1507048D02*
X-23862143Y-1497524D01*
X-23709762Y-1697524D02*
X-23709762Y-1564190D01*
X-23709762Y-1583238D02*
X-23700238Y-1573714D01*
X-23700238Y-1573714D02*
X-23681190Y-1564190D01*
X-23681190Y-1564190D02*
X-23652619Y-1564190D01*
X-23652619Y-1564190D02*
X-23633571Y-1573714D01*
X-23633571Y-1573714D02*
X-23624047Y-1592762D01*
X-23624047Y-1592762D02*
X-23624047Y-1697524D01*
X-23624047Y-1592762D02*
X-23614524Y-1573714D01*
X-23614524Y-1573714D02*
X-23595476Y-1564190D01*
X-23595476Y-1564190D02*
X-23566905Y-1564190D01*
X-23566905Y-1564190D02*
X-23547857Y-1573714D01*
X-23547857Y-1573714D02*
X-23538333Y-1592762D01*
X-23538333Y-1592762D02*
X-23538333Y-1697524D01*
X-23443095Y-1697524D02*
X-23443095Y-1564190D01*
X-23443095Y-1583238D02*
X-23433571Y-1573714D01*
X-23433571Y-1573714D02*
X-23414524Y-1564190D01*
X-23414524Y-1564190D02*
X-23385952Y-1564190D01*
X-23385952Y-1564190D02*
X-23366905Y-1573714D01*
X-23366905Y-1573714D02*
X-23357381Y-1592762D01*
X-23357381Y-1592762D02*
X-23357381Y-1697524D01*
X-23357381Y-1592762D02*
X-23347857Y-1573714D01*
X-23347857Y-1573714D02*
X-23328809Y-1564190D01*
X-23328809Y-1564190D02*
X-23300238Y-1564190D01*
X-23300238Y-1564190D02*
X-23281190Y-1573714D01*
X-23281190Y-1573714D02*
X-23271666Y-1592762D01*
X-23271666Y-1592762D02*
X-23271666Y-1697524D01*
X-22881190Y-1488000D02*
X-23052619Y-1745143D01*
X-22624047Y-1497524D02*
X-22605000Y-1497524D01*
X-22605000Y-1497524D02*
X-22585952Y-1507048D01*
X-22585952Y-1507048D02*
X-22576428Y-1516571D01*
X-22576428Y-1516571D02*
X-22566904Y-1535619D01*
X-22566904Y-1535619D02*
X-22557381Y-1573714D01*
X-22557381Y-1573714D02*
X-22557381Y-1621333D01*
X-22557381Y-1621333D02*
X-22566904Y-1659428D01*
X-22566904Y-1659428D02*
X-22576428Y-1678476D01*
X-22576428Y-1678476D02*
X-22585952Y-1688000D01*
X-22585952Y-1688000D02*
X-22605000Y-1697524D01*
X-22605000Y-1697524D02*
X-22624047Y-1697524D01*
X-22624047Y-1697524D02*
X-22643095Y-1688000D01*
X-22643095Y-1688000D02*
X-22652619Y-1678476D01*
X-22652619Y-1678476D02*
X-22662143Y-1659428D01*
X-22662143Y-1659428D02*
X-22671666Y-1621333D01*
X-22671666Y-1621333D02*
X-22671666Y-1573714D01*
X-22671666Y-1573714D02*
X-22662143Y-1535619D01*
X-22662143Y-1535619D02*
X-22652619Y-1516571D01*
X-22652619Y-1516571D02*
X-22643095Y-1507048D01*
X-22643095Y-1507048D02*
X-22624047Y-1497524D01*
X-22471666Y-1678476D02*
X-22462143Y-1688000D01*
X-22462143Y-1688000D02*
X-22471666Y-1697524D01*
X-22471666Y-1697524D02*
X-22481190Y-1688000D01*
X-22481190Y-1688000D02*
X-22471666Y-1678476D01*
X-22471666Y-1678476D02*
X-22471666Y-1697524D01*
X-22395476Y-1497524D02*
X-22271666Y-1497524D01*
X-22271666Y-1497524D02*
X-22338333Y-1573714D01*
X-22338333Y-1573714D02*
X-22309762Y-1573714D01*
X-22309762Y-1573714D02*
X-22290714Y-1583238D01*
X-22290714Y-1583238D02*
X-22281190Y-1592762D01*
X-22281190Y-1592762D02*
X-22271666Y-1611809D01*
X-22271666Y-1611809D02*
X-22271666Y-1659428D01*
X-22271666Y-1659428D02*
X-22281190Y-1678476D01*
X-22281190Y-1678476D02*
X-22290714Y-1688000D01*
X-22290714Y-1688000D02*
X-22309762Y-1697524D01*
X-22309762Y-1697524D02*
X-22366905Y-1697524D01*
X-22366905Y-1697524D02*
X-22385952Y-1688000D01*
X-22385952Y-1688000D02*
X-22395476Y-1678476D01*
X-22176428Y-1697524D02*
X-22138333Y-1697524D01*
X-22138333Y-1697524D02*
X-22119285Y-1688000D01*
X-22119285Y-1688000D02*
X-22109762Y-1678476D01*
X-22109762Y-1678476D02*
X-22090714Y-1649905D01*
X-22090714Y-1649905D02*
X-22081190Y-1611809D01*
X-22081190Y-1611809D02*
X-22081190Y-1535619D01*
X-22081190Y-1535619D02*
X-22090714Y-1516571D01*
X-22090714Y-1516571D02*
X-22100238Y-1507048D01*
X-22100238Y-1507048D02*
X-22119285Y-1497524D01*
X-22119285Y-1497524D02*
X-22157381Y-1497524D01*
X-22157381Y-1497524D02*
X-22176428Y-1507048D01*
X-22176428Y-1507048D02*
X-22185952Y-1516571D01*
X-22185952Y-1516571D02*
X-22195476Y-1535619D01*
X-22195476Y-1535619D02*
X-22195476Y-1583238D01*
X-22195476Y-1583238D02*
X-22185952Y-1602286D01*
X-22185952Y-1602286D02*
X-22176428Y-1611809D01*
X-22176428Y-1611809D02*
X-22157381Y-1621333D01*
X-22157381Y-1621333D02*
X-22119285Y-1621333D01*
X-22119285Y-1621333D02*
X-22100238Y-1611809D01*
X-22100238Y-1611809D02*
X-22090714Y-1602286D01*
X-22090714Y-1602286D02*
X-22081190Y-1583238D01*
X-22014524Y-1497524D02*
X-21890714Y-1497524D01*
X-21890714Y-1497524D02*
X-21957381Y-1573714D01*
X-21957381Y-1573714D02*
X-21928809Y-1573714D01*
X-21928809Y-1573714D02*
X-21909762Y-1583238D01*
X-21909762Y-1583238D02*
X-21900238Y-1592762D01*
X-21900238Y-1592762D02*
X-21890714Y-1611809D01*
X-21890714Y-1611809D02*
X-21890714Y-1659428D01*
X-21890714Y-1659428D02*
X-21900238Y-1678476D01*
X-21900238Y-1678476D02*
X-21909762Y-1688000D01*
X-21909762Y-1688000D02*
X-21928809Y-1697524D01*
X-21928809Y-1697524D02*
X-21985952Y-1697524D01*
X-21985952Y-1697524D02*
X-22005000Y-1688000D01*
X-22005000Y-1688000D02*
X-22014524Y-1678476D01*
X-21824047Y-1497524D02*
X-21690714Y-1497524D01*
X-21690714Y-1497524D02*
X-21776428Y-1697524D01*
X-21624047Y-1497524D02*
X-21624047Y-1535619D01*
X-21547857Y-1497524D02*
X-21547857Y-1535619D01*
X-21252619Y-1773714D02*
X-21262143Y-1764190D01*
X-21262143Y-1764190D02*
X-21281190Y-1735619D01*
X-21281190Y-1735619D02*
X-21290714Y-1716571D01*
X-21290714Y-1716571D02*
X-21300238Y-1688000D01*
X-21300238Y-1688000D02*
X-21309762Y-1640381D01*
X-21309762Y-1640381D02*
X-21309762Y-1602286D01*
X-21309762Y-1602286D02*
X-21300238Y-1554667D01*
X-21300238Y-1554667D02*
X-21290714Y-1526095D01*
X-21290714Y-1526095D02*
X-21281190Y-1507048D01*
X-21281190Y-1507048D02*
X-21262143Y-1478476D01*
X-21262143Y-1478476D02*
X-21252619Y-1468952D01*
X-21071666Y-1697524D02*
X-21185952Y-1697524D01*
X-21128809Y-1697524D02*
X-21128809Y-1497524D01*
X-21128809Y-1497524D02*
X-21147857Y-1526095D01*
X-21147857Y-1526095D02*
X-21166904Y-1545143D01*
X-21166904Y-1545143D02*
X-21185952Y-1554667D01*
X-20881190Y-1697524D02*
X-20995476Y-1697524D01*
X-20938333Y-1697524D02*
X-20938333Y-1497524D01*
X-20938333Y-1497524D02*
X-20957381Y-1526095D01*
X-20957381Y-1526095D02*
X-20976428Y-1545143D01*
X-20976428Y-1545143D02*
X-20995476Y-1554667D01*
X-20643095Y-1697524D02*
X-20643095Y-1497524D01*
X-20557381Y-1697524D02*
X-20557381Y-1592762D01*
X-20557381Y-1592762D02*
X-20566904Y-1573714D01*
X-20566904Y-1573714D02*
X-20585952Y-1564190D01*
X-20585952Y-1564190D02*
X-20614523Y-1564190D01*
X-20614523Y-1564190D02*
X-20633571Y-1573714D01*
X-20633571Y-1573714D02*
X-20643095Y-1583238D01*
X-20433571Y-1697524D02*
X-20452619Y-1688000D01*
X-20452619Y-1688000D02*
X-20462142Y-1678476D01*
X-20462142Y-1678476D02*
X-20471666Y-1659428D01*
X-20471666Y-1659428D02*
X-20471666Y-1602286D01*
X-20471666Y-1602286D02*
X-20462142Y-1583238D01*
X-20462142Y-1583238D02*
X-20452619Y-1573714D01*
X-20452619Y-1573714D02*
X-20433571Y-1564190D01*
X-20433571Y-1564190D02*
X-20405000Y-1564190D01*
X-20405000Y-1564190D02*
X-20385952Y-1573714D01*
X-20385952Y-1573714D02*
X-20376428Y-1583238D01*
X-20376428Y-1583238D02*
X-20366904Y-1602286D01*
X-20366904Y-1602286D02*
X-20366904Y-1659428D01*
X-20366904Y-1659428D02*
X-20376428Y-1678476D01*
X-20376428Y-1678476D02*
X-20385952Y-1688000D01*
X-20385952Y-1688000D02*
X-20405000Y-1697524D01*
X-20405000Y-1697524D02*
X-20433571Y-1697524D01*
X-20252619Y-1697524D02*
X-20271666Y-1688000D01*
X-20271666Y-1688000D02*
X-20281190Y-1668952D01*
X-20281190Y-1668952D02*
X-20281190Y-1497524D01*
X-20100238Y-1688000D02*
X-20119285Y-1697524D01*
X-20119285Y-1697524D02*
X-20157381Y-1697524D01*
X-20157381Y-1697524D02*
X-20176428Y-1688000D01*
X-20176428Y-1688000D02*
X-20185952Y-1668952D01*
X-20185952Y-1668952D02*
X-20185952Y-1592762D01*
X-20185952Y-1592762D02*
X-20176428Y-1573714D01*
X-20176428Y-1573714D02*
X-20157381Y-1564190D01*
X-20157381Y-1564190D02*
X-20119285Y-1564190D01*
X-20119285Y-1564190D02*
X-20100238Y-1573714D01*
X-20100238Y-1573714D02*
X-20090714Y-1592762D01*
X-20090714Y-1592762D02*
X-20090714Y-1611809D01*
X-20090714Y-1611809D02*
X-20185952Y-1630857D01*
X-20014523Y-1688000D02*
X-19995476Y-1697524D01*
X-19995476Y-1697524D02*
X-19957381Y-1697524D01*
X-19957381Y-1697524D02*
X-19938333Y-1688000D01*
X-19938333Y-1688000D02*
X-19928809Y-1668952D01*
X-19928809Y-1668952D02*
X-19928809Y-1659428D01*
X-19928809Y-1659428D02*
X-19938333Y-1640381D01*
X-19938333Y-1640381D02*
X-19957381Y-1630857D01*
X-19957381Y-1630857D02*
X-19985952Y-1630857D01*
X-19985952Y-1630857D02*
X-20005000Y-1621333D01*
X-20005000Y-1621333D02*
X-20014523Y-1602286D01*
X-20014523Y-1602286D02*
X-20014523Y-1592762D01*
X-20014523Y-1592762D02*
X-20005000Y-1573714D01*
X-20005000Y-1573714D02*
X-19985952Y-1564190D01*
X-19985952Y-1564190D02*
X-19957381Y-1564190D01*
X-19957381Y-1564190D02*
X-19938333Y-1573714D01*
X-19862142Y-1773714D02*
X-19852619Y-1764190D01*
X-19852619Y-1764190D02*
X-19833571Y-1735619D01*
X-19833571Y-1735619D02*
X-19824047Y-1716571D01*
X-19824047Y-1716571D02*
X-19814523Y-1688000D01*
X-19814523Y-1688000D02*
X-19805000Y-1640381D01*
X-19805000Y-1640381D02*
X-19805000Y-1602286D01*
X-19805000Y-1602286D02*
X-19814523Y-1554667D01*
X-19814523Y-1554667D02*
X-19824047Y-1526095D01*
X-19824047Y-1526095D02*
X-19833571Y-1507048D01*
X-19833571Y-1507048D02*
X-19852619Y-1478476D01*
X-19852619Y-1478476D02*
X-19862142Y-1468952D01*
X-25105000Y-2025000D02*
X-25005000Y-1925000D01*
X-25105000Y-1825000D01*
X-25205000Y-1925000D01*
X-25105000Y-2025000D01*
X-24652619Y-2017524D02*
X-24766905Y-2017524D01*
X-24709762Y-2017524D02*
X-24709762Y-1817524D01*
X-24709762Y-1817524D02*
X-24728809Y-1846095D01*
X-24728809Y-1846095D02*
X-24747857Y-1865143D01*
X-24747857Y-1865143D02*
X-24766905Y-1874667D01*
X-24481190Y-1817524D02*
X-24519286Y-1817524D01*
X-24519286Y-1817524D02*
X-24538333Y-1827048D01*
X-24538333Y-1827048D02*
X-24547857Y-1836571D01*
X-24547857Y-1836571D02*
X-24566905Y-1865143D01*
X-24566905Y-1865143D02*
X-24576428Y-1903238D01*
X-24576428Y-1903238D02*
X-24576428Y-1979428D01*
X-24576428Y-1979428D02*
X-24566905Y-1998476D01*
X-24566905Y-1998476D02*
X-24557381Y-2008000D01*
X-24557381Y-2008000D02*
X-24538333Y-2017524D01*
X-24538333Y-2017524D02*
X-24500238Y-2017524D01*
X-24500238Y-2017524D02*
X-24481190Y-2008000D01*
X-24481190Y-2008000D02*
X-24471667Y-1998476D01*
X-24471667Y-1998476D02*
X-24462143Y-1979428D01*
X-24462143Y-1979428D02*
X-24462143Y-1931809D01*
X-24462143Y-1931809D02*
X-24471667Y-1912762D01*
X-24471667Y-1912762D02*
X-24481190Y-1903238D01*
X-24481190Y-1903238D02*
X-24500238Y-1893714D01*
X-24500238Y-1893714D02*
X-24538333Y-1893714D01*
X-24538333Y-1893714D02*
X-24557381Y-1903238D01*
X-24557381Y-1903238D02*
X-24566905Y-1912762D01*
X-24566905Y-1912762D02*
X-24576428Y-1931809D01*
X-24376428Y-1998476D02*
X-24366905Y-2008000D01*
X-24366905Y-2008000D02*
X-24376428Y-2017524D01*
X-24376428Y-2017524D02*
X-24385952Y-2008000D01*
X-24385952Y-2008000D02*
X-24376428Y-1998476D01*
X-24376428Y-1998476D02*
X-24376428Y-2017524D01*
X-24290714Y-1836571D02*
X-24281190Y-1827048D01*
X-24281190Y-1827048D02*
X-24262143Y-1817524D01*
X-24262143Y-1817524D02*
X-24214524Y-1817524D01*
X-24214524Y-1817524D02*
X-24195476Y-1827048D01*
X-24195476Y-1827048D02*
X-24185952Y-1836571D01*
X-24185952Y-1836571D02*
X-24176428Y-1855619D01*
X-24176428Y-1855619D02*
X-24176428Y-1874667D01*
X-24176428Y-1874667D02*
X-24185952Y-1903238D01*
X-24185952Y-1903238D02*
X-24300238Y-2017524D01*
X-24300238Y-2017524D02*
X-24176428Y-2017524D01*
X-24052619Y-1817524D02*
X-24033571Y-1817524D01*
X-24033571Y-1817524D02*
X-24014524Y-1827048D01*
X-24014524Y-1827048D02*
X-24005000Y-1836571D01*
X-24005000Y-1836571D02*
X-23995476Y-1855619D01*
X-23995476Y-1855619D02*
X-23985952Y-1893714D01*
X-23985952Y-1893714D02*
X-23985952Y-1941333D01*
X-23985952Y-1941333D02*
X-23995476Y-1979428D01*
X-23995476Y-1979428D02*
X-24005000Y-1998476D01*
X-24005000Y-1998476D02*
X-24014524Y-2008000D01*
X-24014524Y-2008000D02*
X-24033571Y-2017524D01*
X-24033571Y-2017524D02*
X-24052619Y-2017524D01*
X-24052619Y-2017524D02*
X-24071667Y-2008000D01*
X-24071667Y-2008000D02*
X-24081190Y-1998476D01*
X-24081190Y-1998476D02*
X-24090714Y-1979428D01*
X-24090714Y-1979428D02*
X-24100238Y-1941333D01*
X-24100238Y-1941333D02*
X-24100238Y-1893714D01*
X-24100238Y-1893714D02*
X-24090714Y-1855619D01*
X-24090714Y-1855619D02*
X-24081190Y-1836571D01*
X-24081190Y-1836571D02*
X-24071667Y-1827048D01*
X-24071667Y-1827048D02*
X-24052619Y-1817524D01*
X-23862143Y-1817524D02*
X-23843095Y-1817524D01*
X-23843095Y-1817524D02*
X-23824047Y-1827048D01*
X-23824047Y-1827048D02*
X-23814524Y-1836571D01*
X-23814524Y-1836571D02*
X-23805000Y-1855619D01*
X-23805000Y-1855619D02*
X-23795476Y-1893714D01*
X-23795476Y-1893714D02*
X-23795476Y-1941333D01*
X-23795476Y-1941333D02*
X-23805000Y-1979428D01*
X-23805000Y-1979428D02*
X-23814524Y-1998476D01*
X-23814524Y-1998476D02*
X-23824047Y-2008000D01*
X-23824047Y-2008000D02*
X-23843095Y-2017524D01*
X-23843095Y-2017524D02*
X-23862143Y-2017524D01*
X-23862143Y-2017524D02*
X-23881190Y-2008000D01*
X-23881190Y-2008000D02*
X-23890714Y-1998476D01*
X-23890714Y-1998476D02*
X-23900238Y-1979428D01*
X-23900238Y-1979428D02*
X-23909762Y-1941333D01*
X-23909762Y-1941333D02*
X-23909762Y-1893714D01*
X-23909762Y-1893714D02*
X-23900238Y-1855619D01*
X-23900238Y-1855619D02*
X-23890714Y-1836571D01*
X-23890714Y-1836571D02*
X-23881190Y-1827048D01*
X-23881190Y-1827048D02*
X-23862143Y-1817524D01*
X-23709762Y-2017524D02*
X-23709762Y-1884190D01*
X-23709762Y-1903238D02*
X-23700238Y-1893714D01*
X-23700238Y-1893714D02*
X-23681190Y-1884190D01*
X-23681190Y-1884190D02*
X-23652619Y-1884190D01*
X-23652619Y-1884190D02*
X-23633571Y-1893714D01*
X-23633571Y-1893714D02*
X-23624047Y-1912762D01*
X-23624047Y-1912762D02*
X-23624047Y-2017524D01*
X-23624047Y-1912762D02*
X-23614524Y-1893714D01*
X-23614524Y-1893714D02*
X-23595476Y-1884190D01*
X-23595476Y-1884190D02*
X-23566905Y-1884190D01*
X-23566905Y-1884190D02*
X-23547857Y-1893714D01*
X-23547857Y-1893714D02*
X-23538333Y-1912762D01*
X-23538333Y-1912762D02*
X-23538333Y-2017524D01*
X-23443095Y-2017524D02*
X-23443095Y-1884190D01*
X-23443095Y-1903238D02*
X-23433571Y-1893714D01*
X-23433571Y-1893714D02*
X-23414524Y-1884190D01*
X-23414524Y-1884190D02*
X-23385952Y-1884190D01*
X-23385952Y-1884190D02*
X-23366905Y-1893714D01*
X-23366905Y-1893714D02*
X-23357381Y-1912762D01*
X-23357381Y-1912762D02*
X-23357381Y-2017524D01*
X-23357381Y-1912762D02*
X-23347857Y-1893714D01*
X-23347857Y-1893714D02*
X-23328809Y-1884190D01*
X-23328809Y-1884190D02*
X-23300238Y-1884190D01*
X-23300238Y-1884190D02*
X-23281190Y-1893714D01*
X-23281190Y-1893714D02*
X-23271666Y-1912762D01*
X-23271666Y-1912762D02*
X-23271666Y-2017524D01*
X-22881190Y-1808000D02*
X-23052619Y-2065143D01*
X-22624047Y-1817524D02*
X-22605000Y-1817524D01*
X-22605000Y-1817524D02*
X-22585952Y-1827048D01*
X-22585952Y-1827048D02*
X-22576428Y-1836571D01*
X-22576428Y-1836571D02*
X-22566904Y-1855619D01*
X-22566904Y-1855619D02*
X-22557381Y-1893714D01*
X-22557381Y-1893714D02*
X-22557381Y-1941333D01*
X-22557381Y-1941333D02*
X-22566904Y-1979428D01*
X-22566904Y-1979428D02*
X-22576428Y-1998476D01*
X-22576428Y-1998476D02*
X-22585952Y-2008000D01*
X-22585952Y-2008000D02*
X-22605000Y-2017524D01*
X-22605000Y-2017524D02*
X-22624047Y-2017524D01*
X-22624047Y-2017524D02*
X-22643095Y-2008000D01*
X-22643095Y-2008000D02*
X-22652619Y-1998476D01*
X-22652619Y-1998476D02*
X-22662143Y-1979428D01*
X-22662143Y-1979428D02*
X-22671666Y-1941333D01*
X-22671666Y-1941333D02*
X-22671666Y-1893714D01*
X-22671666Y-1893714D02*
X-22662143Y-1855619D01*
X-22662143Y-1855619D02*
X-22652619Y-1836571D01*
X-22652619Y-1836571D02*
X-22643095Y-1827048D01*
X-22643095Y-1827048D02*
X-22624047Y-1817524D01*
X-22471666Y-1998476D02*
X-22462143Y-2008000D01*
X-22462143Y-2008000D02*
X-22471666Y-2017524D01*
X-22471666Y-2017524D02*
X-22481190Y-2008000D01*
X-22481190Y-2008000D02*
X-22471666Y-1998476D01*
X-22471666Y-1998476D02*
X-22471666Y-2017524D01*
X-22290714Y-1817524D02*
X-22328809Y-1817524D01*
X-22328809Y-1817524D02*
X-22347857Y-1827048D01*
X-22347857Y-1827048D02*
X-22357381Y-1836571D01*
X-22357381Y-1836571D02*
X-22376428Y-1865143D01*
X-22376428Y-1865143D02*
X-22385952Y-1903238D01*
X-22385952Y-1903238D02*
X-22385952Y-1979428D01*
X-22385952Y-1979428D02*
X-22376428Y-1998476D01*
X-22376428Y-1998476D02*
X-22366905Y-2008000D01*
X-22366905Y-2008000D02*
X-22347857Y-2017524D01*
X-22347857Y-2017524D02*
X-22309762Y-2017524D01*
X-22309762Y-2017524D02*
X-22290714Y-2008000D01*
X-22290714Y-2008000D02*
X-22281190Y-1998476D01*
X-22281190Y-1998476D02*
X-22271666Y-1979428D01*
X-22271666Y-1979428D02*
X-22271666Y-1931809D01*
X-22271666Y-1931809D02*
X-22281190Y-1912762D01*
X-22281190Y-1912762D02*
X-22290714Y-1903238D01*
X-22290714Y-1903238D02*
X-22309762Y-1893714D01*
X-22309762Y-1893714D02*
X-22347857Y-1893714D01*
X-22347857Y-1893714D02*
X-22366905Y-1903238D01*
X-22366905Y-1903238D02*
X-22376428Y-1912762D01*
X-22376428Y-1912762D02*
X-22385952Y-1931809D01*
X-22205000Y-1817524D02*
X-22081190Y-1817524D01*
X-22081190Y-1817524D02*
X-22147857Y-1893714D01*
X-22147857Y-1893714D02*
X-22119285Y-1893714D01*
X-22119285Y-1893714D02*
X-22100238Y-1903238D01*
X-22100238Y-1903238D02*
X-22090714Y-1912762D01*
X-22090714Y-1912762D02*
X-22081190Y-1931809D01*
X-22081190Y-1931809D02*
X-22081190Y-1979428D01*
X-22081190Y-1979428D02*
X-22090714Y-1998476D01*
X-22090714Y-1998476D02*
X-22100238Y-2008000D01*
X-22100238Y-2008000D02*
X-22119285Y-2017524D01*
X-22119285Y-2017524D02*
X-22176428Y-2017524D01*
X-22176428Y-2017524D02*
X-22195476Y-2008000D01*
X-22195476Y-2008000D02*
X-22205000Y-1998476D01*
X-22014524Y-1817524D02*
X-21881190Y-1817524D01*
X-21881190Y-1817524D02*
X-21966905Y-2017524D01*
X-21776428Y-1903238D02*
X-21795476Y-1893714D01*
X-21795476Y-1893714D02*
X-21805000Y-1884190D01*
X-21805000Y-1884190D02*
X-21814524Y-1865143D01*
X-21814524Y-1865143D02*
X-21814524Y-1855619D01*
X-21814524Y-1855619D02*
X-21805000Y-1836571D01*
X-21805000Y-1836571D02*
X-21795476Y-1827048D01*
X-21795476Y-1827048D02*
X-21776428Y-1817524D01*
X-21776428Y-1817524D02*
X-21738333Y-1817524D01*
X-21738333Y-1817524D02*
X-21719285Y-1827048D01*
X-21719285Y-1827048D02*
X-21709762Y-1836571D01*
X-21709762Y-1836571D02*
X-21700238Y-1855619D01*
X-21700238Y-1855619D02*
X-21700238Y-1865143D01*
X-21700238Y-1865143D02*
X-21709762Y-1884190D01*
X-21709762Y-1884190D02*
X-21719285Y-1893714D01*
X-21719285Y-1893714D02*
X-21738333Y-1903238D01*
X-21738333Y-1903238D02*
X-21776428Y-1903238D01*
X-21776428Y-1903238D02*
X-21795476Y-1912762D01*
X-21795476Y-1912762D02*
X-21805000Y-1922286D01*
X-21805000Y-1922286D02*
X-21814524Y-1941333D01*
X-21814524Y-1941333D02*
X-21814524Y-1979428D01*
X-21814524Y-1979428D02*
X-21805000Y-1998476D01*
X-21805000Y-1998476D02*
X-21795476Y-2008000D01*
X-21795476Y-2008000D02*
X-21776428Y-2017524D01*
X-21776428Y-2017524D02*
X-21738333Y-2017524D01*
X-21738333Y-2017524D02*
X-21719285Y-2008000D01*
X-21719285Y-2008000D02*
X-21709762Y-1998476D01*
X-21709762Y-1998476D02*
X-21700238Y-1979428D01*
X-21700238Y-1979428D02*
X-21700238Y-1941333D01*
X-21700238Y-1941333D02*
X-21709762Y-1922286D01*
X-21709762Y-1922286D02*
X-21719285Y-1912762D01*
X-21719285Y-1912762D02*
X-21738333Y-1903238D01*
X-21624047Y-1817524D02*
X-21624047Y-1855619D01*
X-21547857Y-1817524D02*
X-21547857Y-1855619D01*
X-21252619Y-2093714D02*
X-21262143Y-2084190D01*
X-21262143Y-2084190D02*
X-21281190Y-2055619D01*
X-21281190Y-2055619D02*
X-21290714Y-2036571D01*
X-21290714Y-2036571D02*
X-21300238Y-2008000D01*
X-21300238Y-2008000D02*
X-21309762Y-1960381D01*
X-21309762Y-1960381D02*
X-21309762Y-1922286D01*
X-21309762Y-1922286D02*
X-21300238Y-1874667D01*
X-21300238Y-1874667D02*
X-21290714Y-1846095D01*
X-21290714Y-1846095D02*
X-21281190Y-1827048D01*
X-21281190Y-1827048D02*
X-21262143Y-1798476D01*
X-21262143Y-1798476D02*
X-21252619Y-1788952D01*
X-21071666Y-2017524D02*
X-21185952Y-2017524D01*
X-21128809Y-2017524D02*
X-21128809Y-1817524D01*
X-21128809Y-1817524D02*
X-21147857Y-1846095D01*
X-21147857Y-1846095D02*
X-21166904Y-1865143D01*
X-21166904Y-1865143D02*
X-21185952Y-1874667D01*
X-20833571Y-2017524D02*
X-20833571Y-1817524D01*
X-20747857Y-2017524D02*
X-20747857Y-1912762D01*
X-20747857Y-1912762D02*
X-20757381Y-1893714D01*
X-20757381Y-1893714D02*
X-20776428Y-1884190D01*
X-20776428Y-1884190D02*
X-20805000Y-1884190D01*
X-20805000Y-1884190D02*
X-20824047Y-1893714D01*
X-20824047Y-1893714D02*
X-20833571Y-1903238D01*
X-20624047Y-2017524D02*
X-20643095Y-2008000D01*
X-20643095Y-2008000D02*
X-20652619Y-1998476D01*
X-20652619Y-1998476D02*
X-20662142Y-1979428D01*
X-20662142Y-1979428D02*
X-20662142Y-1922286D01*
X-20662142Y-1922286D02*
X-20652619Y-1903238D01*
X-20652619Y-1903238D02*
X-20643095Y-1893714D01*
X-20643095Y-1893714D02*
X-20624047Y-1884190D01*
X-20624047Y-1884190D02*
X-20595476Y-1884190D01*
X-20595476Y-1884190D02*
X-20576428Y-1893714D01*
X-20576428Y-1893714D02*
X-20566904Y-1903238D01*
X-20566904Y-1903238D02*
X-20557381Y-1922286D01*
X-20557381Y-1922286D02*
X-20557381Y-1979428D01*
X-20557381Y-1979428D02*
X-20566904Y-1998476D01*
X-20566904Y-1998476D02*
X-20576428Y-2008000D01*
X-20576428Y-2008000D02*
X-20595476Y-2017524D01*
X-20595476Y-2017524D02*
X-20624047Y-2017524D01*
X-20443095Y-2017524D02*
X-20462142Y-2008000D01*
X-20462142Y-2008000D02*
X-20471666Y-1988952D01*
X-20471666Y-1988952D02*
X-20471666Y-1817524D01*
X-20290714Y-2008000D02*
X-20309761Y-2017524D01*
X-20309761Y-2017524D02*
X-20347857Y-2017524D01*
X-20347857Y-2017524D02*
X-20366904Y-2008000D01*
X-20366904Y-2008000D02*
X-20376428Y-1988952D01*
X-20376428Y-1988952D02*
X-20376428Y-1912762D01*
X-20376428Y-1912762D02*
X-20366904Y-1893714D01*
X-20366904Y-1893714D02*
X-20347857Y-1884190D01*
X-20347857Y-1884190D02*
X-20309761Y-1884190D01*
X-20309761Y-1884190D02*
X-20290714Y-1893714D01*
X-20290714Y-1893714D02*
X-20281190Y-1912762D01*
X-20281190Y-1912762D02*
X-20281190Y-1931809D01*
X-20281190Y-1931809D02*
X-20376428Y-1950857D01*
X-20214523Y-2093714D02*
X-20205000Y-2084190D01*
X-20205000Y-2084190D02*
X-20185952Y-2055619D01*
X-20185952Y-2055619D02*
X-20176428Y-2036571D01*
X-20176428Y-2036571D02*
X-20166904Y-2008000D01*
X-20166904Y-2008000D02*
X-20157381Y-1960381D01*
X-20157381Y-1960381D02*
X-20157381Y-1922286D01*
X-20157381Y-1922286D02*
X-20166904Y-1874667D01*
X-20166904Y-1874667D02*
X-20176428Y-1846095D01*
X-20176428Y-1846095D02*
X-20185952Y-1827048D01*
X-20185952Y-1827048D02*
X-20205000Y-1798476D01*
X-20205000Y-1798476D02*
X-20214523Y-1788952D01*
M02*
